[
    {
        "nombre": "Juan",
        "apellido": "Perez",
        "edad": 23,
        "email": "jp@gmail.com"
    },
    {
        "nombre": "Pedro",
        "apellido": "Mei",
        "edad": 21,
        "email": "jm@gmail.com"
    },
    {
        "nombre": "Juana",
        "apellido": "Suarez",
        "edad": 25,
        "email": "js@gmail.com"
    }
]