Phase started: unnamed (index: 0, duration: 1s) 18:12:54(-0600)

Phase completed: unnamed (index: 0, duration: 1s) 18:12:55(-0600)

--------------------------------------
Metrics for period to: 18:13:00(-0600) (width: 5.293s)
--------------------------------------

http.codes.200: ................................................................ 416
http.request_rate: ............................................................. 88/sec
http.requests: ................................................................. 466
http.response_time:
  min: ......................................................................... 5
  max: ......................................................................... 1601
  median: ...................................................................... 550.1
  p95: ......................................................................... 837.3
  p99: ......................................................................... 1153.1
http.responses: ................................................................ 416
vusers.created: ................................................................ 50
vusers.created_by_name.0: ...................................................... 50


All VUs finished. Total time: 30 seconds

--------------------------------
Summary report @ 18:13:21(-0600)
--------------------------------

http.codes.200: ................................................................ 2000
http.request_rate: ............................................................. 42/sec
http.requests: ................................................................. 2000
http.response_time:
  min: ......................................................................... 5
  max: ......................................................................... 2692
  median: ...................................................................... 518.1
  p95: ......................................................................... 1085.9
  p99: ......................................................................... 1720.2
http.responses: ................................................................ 2000
vusers.completed: .............................................................. 50
vusers.created: ................................................................ 50
vusers.created_by_name.0: ...................................................... 50
vusers.failed: ................................................................. 0
vusers.session_length:
  min: ......................................................................... 20082.9
  max: ......................................................................... 23564.6
  median: ...................................................................... 23162.4
  p95: ......................................................................... 23162.4
  p99: ......................................................................... 23630.3
