[2022-11-02T18:37:17.095] [INFO] archivo2 - Cheese is Comté.
[2022-11-02T18:37:17.095] [WARN] archivo2 - Cheese is quite smelly.
[2022-11-02T18:37:17.096] [ERROR] archivo2 - Cheese is too ripe!
[2022-11-02T18:37:17.096] [FATAL] archivo2 - Cheese was breeding ground for listeria.
[2022-11-02T18:39:27.332] [INFO] archivo2 - Cheese is Comté.
[2022-11-02T18:39:27.332] [WARN] archivo2 - Cheese is quite smelly.
[2022-11-02T18:39:27.332] [ERROR] archivo2 - Cheese is too ripe!
[2022-11-02T18:39:27.332] [FATAL] archivo2 - Cheese was breeding ground for listeria.
[2022-11-02T18:39:42.719] [INFO] archivo2 - Cheese is Comté.
[2022-11-02T18:39:42.719] [WARN] archivo2 - Cheese is quite smelly.
[2022-11-02T18:39:42.719] [ERROR] archivo2 - Cheese is too ripe!
[2022-11-02T18:39:42.719] [FATAL] archivo2 - Cheese was breeding ground for listeria.
