Statistical profiling result from nobloq-v8.log, (2006 ticks, 0 unaccounted, 0 excluded).

 [Shared libraries]:
   ticks  total  nonlib   name
    158    7.9%          /usr/lib/system/libsystem_kernel.dylib
     38    1.9%          /usr/lib/system/libsystem_pthread.dylib
     24    1.2%          /usr/lib/system/libsystem_c.dylib
     10    0.5%          /usr/lib/libc++.1.dylib
      6    0.3%          /usr/lib/system/libsystem_platform.dylib
      6    0.3%          /usr/lib/system/libsystem_malloc.dylib
      1    0.0%          /usr/lib/system/libdyld.dylib
      1    0.0%          /usr/lib/libc++abi.dylib

 [JavaScript]:
   ticks  total  nonlib   name
      2    0.1%    0.1%  LazyCompile: *normalizeString node:path:66:25
      1    0.0%    0.1%  RegExp: ;\s*charset\s*=
      1    0.0%    0.1%  LazyCompile: *next /Users/kevjo_oe/Documents/CoderHouse/programacion_backend32085/Clases/clase-32/3-ejemplo-profiling/node_modules/express/lib/router/index.js:177:16
      1    0.0%    0.1%  Function: ^resetBuffer node:internal/streams/writable:202:21
      1    0.0%    0.1%  Function: ^resOnFinish node:_http_server:793:21
      1    0.0%    0.1%  Function: ^readPackage node:internal/modules/cjs/loader:290:21
      1    0.0%    0.1%  Function: ^processPromiseRejections node:internal/process/promises:211:34
      1    0.0%    0.1%  Function: ^parserOnIncoming node:_http_server:857:26
      1    0.0%    0.1%  Function: ^normalizeParseOptions /Users/kevjo_oe/Documents/CoderHouse/programacion_backend32085/Clases/clase-32/3-ejemplo-profiling/node_modules/qs/lib/parse.js:204:59
      1    0.0%    0.1%  Function: ^matchKnownFields node:_http_incoming:231:26
      1    0.0%    0.1%  Function: ^from node:buffer:296:28
      1    0.0%    0.1%  Function: ^expressInit /Users/kevjo_oe/Documents/CoderHouse/programacion_backend32085/Clases/clase-32/3-ejemplo-profiling/node_modules/express/lib/middleware/init.js:29:30
      1    0.0%    0.1%  Function: ^emitBeforeScript node:internal/async_hooks:510:26
      1    0.0%    0.1%  Function: ^doWrite node:internal/streams/writable:398:17
      1    0.0%    0.1%  Function: ^compact /Users/kevjo_oe/Documents/CoderHouse/programacion_backend32085/Clases/clase-32/3-ejemplo-profiling/node_modules/qs/lib/utils.js:190:31
      1    0.0%    0.1%  Function: ^clearBuffer node:internal/streams/writable:529:21
      1    0.0%    0.1%  Function: ^callback node:internal/streams/writable:550:44
      1    0.0%    0.1%  Function: ^append node:internal/linkedlist:30:16
      1    0.0%    0.1%  Function: ^ContentType /Users/kevjo_oe/Documents/CoderHouse/programacion_backend32085/Clases/clase-32/3-ejemplo-profiling/node_modules/content-type/index.js:219:22

 [C++]:
   ticks  total  nonlib   name
   1142   56.9%   64.8%  T __kernelrpc_mach_port_get_context
    442   22.0%   25.1%  t std::__1::unique_ptr<std::__1::__hash_node<std::__1::__hash_value_type<std::__1::basic_string<char, std::__1::char_traits<char>, std::__1::allocator<char> >, std::__1::unique_ptr<v8::ScriptCompiler::CachedData, std::__1::default_delete<v8::ScriptCompiler::CachedData> > >, void*>, std::__1::__hash_node_destructor<std::__1::allocator<std::__1::__hash_node<std::__1::__hash_value_type<std::__1::basic_string<char, std::__1::char_traits<char>, std::__1::allocator<char> >, std::__1::unique_ptr<v8::ScriptCompiler::CachedData, std::__1::default_delete<v8::ScriptCompiler::CachedData> > >, void*> > > > std::__1::__hash_table<std::__1::__hash_value_type<std::__1::basic_string<char, std::__1::char_traits<char>, std::__1::allocator<char> >, std::__1::unique_ptr<v8::ScriptCompiler::CachedData, std::__1::default_delete<v8::ScriptCompiler::CachedData> > >, std::__1::__unordered_map_hasher<std::__1::basic_string<char, std::__1::char_traits<char>, std::__1::allocator<char> >, std::__1::__hash_value_type<std::__1::basic_string<char, std::__1::char_traits<char>, std::__1::allocator<char> >, std::__1::unique_ptr<v8::ScriptCompiler::CachedData, std::__1::default_delete<v8::ScriptCompiler::CachedData> > >, std::__1::hash<std::__1::basic_string<char, std::__1::char_traits<char>, std::__1::allocator<char> > >, true>, std::__1::__unordered_map_equal<std::__1::basic_string<char, std::__1::char_traits<char>, std::__1::allocator<char> >, std::__1::__hash_value_type<std::__1::basic_string<char, std::__1::char_traits<char>, std::__1::allocator<char> >, std::__1::unique_ptr<v8::ScriptCompiler::CachedData, std::__1::default_delete<v8::ScriptCompiler::CachedData> > >, std::__1::equal_to<std::__1::basic_string<char, std::__1::char_traits<char>, std::__1::allocator<char> > >, true>, std::__1::allocator<std::__1::__hash_value_type<std::__1::basic_string<char, std::__1::char_traits<char>, std::__1::allocator<char> >, std::__1::unique_ptr<v8::ScriptCompiler::CachedData, std::__1::default_delete<v8::ScriptCompiler::CachedData> > > > >::__construct_node<char const*&, std::__1::unique_ptr<v8::ScriptCompiler::CachedData, std::__1::default_delete<v8::ScriptCompiler::CachedData> > >(char const*&, std::__1::unique_ptr<v8::ScriptCompiler::CachedData, std::__1::default_delete<v8::ScriptCompiler::CachedData> >&&)
     44    2.2%    2.5%  T node::contextify::ContextifyContext::CompileFunction(v8::FunctionCallbackInfo<v8::Value> const&)
     28    1.4%    1.6%  T _host_request_notification
     24    1.2%    1.4%  T _mig_strncpy_zerofill
     14    0.7%    0.8%  T _mach_msg_destroy
     13    0.6%    0.7%  t void node::Buffer::(anonymous namespace)::StringSlice<(node::encoding)1>(v8::FunctionCallbackInfo<v8::Value> const&)
      5    0.2%    0.3%  t node::fs::InternalModuleStat(v8::FunctionCallbackInfo<v8::Value> const&)
      5    0.2%    0.3%  T _host_get_special_port
      4    0.2%    0.2%  t std::__1::basic_ostream<char, std::__1::char_traits<char> >& std::__1::__put_character_sequence<char, std::__1::char_traits<char> >(std::__1::basic_ostream<char, std::__1::char_traits<char> >&, char const*, unsigned long)
      3    0.1%    0.2%  t node::fs::InternalModuleReadJSON(v8::FunctionCallbackInfo<v8::Value> const&)
      3    0.1%    0.2%  T _semaphore_create
      2    0.1%    0.1%  T node::InternalCallbackScope::InternalCallbackScope(node::Environment*, v8::Local<v8::Object>, node::async_context const&, int)
      1    0.0%    0.1%  t void node::Buffer::(anonymous namespace)::StringWrite<(node::encoding)1>(v8::FunctionCallbackInfo<v8::Value> const&)
      1    0.0%    0.1%  t std::__1::ostreambuf_iterator<char, std::__1::char_traits<char> > std::__1::__pad_and_output<char, std::__1::char_traits<char> >(std::__1::ostreambuf_iterator<char, std::__1::char_traits<char> >, char const*, char const*, char const*, std::__1::ios_base&, char)
      1    0.0%    0.1%  t node::fs::Stat(v8::FunctionCallbackInfo<v8::Value> const&)
      1    0.0%    0.1%  t node::EnvGetter(v8::Local<v8::Name>, v8::PropertyCallbackInfo<v8::Value> const&)
      1    0.0%    0.1%  t node::Buffer::(anonymous namespace)::ByteLengthUtf8(v8::FunctionCallbackInfo<v8::Value> const&)
      1    0.0%    0.1%  t node::(anonymous namespace)::Parser::OnStreamAlloc(unsigned long)
      1    0.0%    0.1%  T node::fs::NewFSReqCallback(v8::FunctionCallbackInfo<v8::Value> const&)
      1    0.0%    0.1%  T node::binding::GetInternalBinding(v8::FunctionCallbackInfo<v8::Value> const&)
      1    0.0%    0.1%  T node::MakeLibuvRequestCallback<uv_fs_s, void (*)(uv_fs_s*)>::Wrapper(uv_fs_s*)
      1    0.0%    0.1%  T node::InternalCallbackScope::InternalCallbackScope(node::AsyncWrap*, int)
      1    0.0%    0.1%  T node::InternalCallbackScope::Close()
      1    0.0%    0.1%  T node::Environment::RunAndClearNativeImmediates(bool)
      1    0.0%    0.1%  T _open_dprotected_np

 [Summary]:
   ticks  total  nonlib   name
     20    1.0%    1.1%  JavaScript
   1742   86.8%   98.9%  C++
     52    2.6%    3.0%  GC
    244   12.2%          Shared libraries

 [C++ entry points]:
   ticks    cpp   total   name
    571  100.0%   28.5%  TOTAL

 [Bottom up (heavy) profile]:
  Note: percentage shows a share of a particular caller in the total
  amount of its parent calls.
  Callers occupying less than 1.0% are not shown.

   ticks parent  name
   1142   56.9%  T __kernelrpc_mach_port_get_context

    442   22.0%  t std::__1::unique_ptr<std::__1::__hash_node<std::__1::__hash_value_type<std::__1::basic_string<char, std::__1::char_traits<char>, std::__1::allocator<char> >, std::__1::unique_ptr<v8::ScriptCompiler::CachedData, std::__1::default_delete<v8::ScriptCompiler::CachedData> > >, void*>, std::__1::__hash_node_destructor<std::__1::allocator<std::__1::__hash_node<std::__1::__hash_value_type<std::__1::basic_string<char, std::__1::char_traits<char>, std::__1::allocator<char> >, std::__1::unique_ptr<v8::ScriptCompiler::CachedData, std::__1::default_delete<v8::ScriptCompiler::CachedData> > >, void*> > > > std::__1::__hash_table<std::__1::__hash_value_type<std::__1::basic_string<char, std::__1::char_traits<char>, std::__1::allocator<char> >, std::__1::unique_ptr<v8::ScriptCompiler::CachedData, std::__1::default_delete<v8::ScriptCompiler::CachedData> > >, std::__1::__unordered_map_hasher<std::__1::basic_string<char, std::__1::char_traits<char>, std::__1::allocator<char> >, std::__1::__hash_value_type<std::__1::basic_string<char, std::__1::char_traits<char>, std::__1::allocator<char> >, std::__1::unique_ptr<v8::ScriptCompiler::CachedData, std::__1::default_delete<v8::ScriptCompiler::CachedData> > >, std::__1::hash<std::__1::basic_string<char, std::__1::char_traits<char>, std::__1::allocator<char> > >, true>, std::__1::__unordered_map_equal<std::__1::basic_string<char, std::__1::char_traits<char>, std::__1::allocator<char> >, std::__1::__hash_value_type<std::__1::basic_string<char, std::__1::char_traits<char>, std::__1::allocator<char> >, std::__1::unique_ptr<v8::ScriptCompiler::CachedData, std::__1::default_delete<v8::ScriptCompiler::CachedData> > >, std::__1::equal_to<std::__1::basic_string<char, std::__1::char_traits<char>, std::__1::allocator<char> > >, true>, std::__1::allocator<std::__1::__hash_value_type<std::__1::basic_string<char, std::__1::char_traits<char>, std::__1::allocator<char> >, std::__1::unique_ptr<v8::ScriptCompiler::CachedData, std::__1::default_delete<v8::ScriptCompiler::CachedData> > > > >::__construct_node<char const*&, std::__1::unique_ptr<v8::ScriptCompiler::CachedData, std::__1::default_delete<v8::ScriptCompiler::CachedData> > >(char const*&, std::__1::unique_ptr<v8::ScriptCompiler::CachedData, std::__1::default_delete<v8::ScriptCompiler::CachedData> >&&)
    265   60.0%    t std::__1::unique_ptr<std::__1::__hash_node<std::__1::__hash_value_type<std::__1::basic_string<char, std::__1::char_traits<char>, std::__1::allocator<char> >, std::__1::unique_ptr<v8::ScriptCompiler::CachedData, std::__1::default_delete<v8::ScriptCompiler::CachedData> > >, void*>, std::__1::__hash_node_destructor<std::__1::allocator<std::__1::__hash_node<std::__1::__hash_value_type<std::__1::basic_string<char, std::__1::char_traits<char>, std::__1::allocator<char> >, std::__1::unique_ptr<v8::ScriptCompiler::CachedData, std::__1::default_delete<v8::ScriptCompiler::CachedData> > >, void*> > > > std::__1::__hash_table<std::__1::__hash_value_type<std::__1::basic_string<char, std::__1::char_traits<char>, std::__1::allocator<char> >, std::__1::unique_ptr<v8::ScriptCompiler::CachedData, std::__1::default_delete<v8::ScriptCompiler::CachedData> > >, std::__1::__unordered_map_hasher<std::__1::basic_string<char, std::__1::char_traits<char>, std::__1::allocator<char> >, std::__1::__hash_value_type<std::__1::basic_string<char, std::__1::char_traits<char>, std::__1::allocator<char> >, std::__1::unique_ptr<v8::ScriptCompiler::CachedData, std::__1::default_delete<v8::ScriptCompiler::CachedData> > >, std::__1::hash<std::__1::basic_string<char, std::__1::char_traits<char>, std::__1::allocator<char> > >, true>, std::__1::__unordered_map_equal<std::__1::basic_string<char, std::__1::char_traits<char>, std::__1::allocator<char> >, std::__1::__hash_value_type<std::__1::basic_string<char, std::__1::char_traits<char>, std::__1::allocator<char> >, std::__1::unique_ptr<v8::ScriptCompiler::CachedData, std::__1::default_delete<v8::ScriptCompiler::CachedData> > >, std::__1::equal_to<std::__1::basic_string<char, std::__1::char_traits<char>, std::__1::allocator<char> > >, true>, std::__1::allocator<std::__1::__hash_value_type<std::__1::basic_string<char, std::__1::char_traits<char>, std::__1::allocator<char> >, std::__1::unique_ptr<v8::ScriptCompiler::CachedData, std::__1::default_delete<v8::ScriptCompiler::CachedData> > > > >::__construct_node<char const*&, std::__1::unique_ptr<v8::ScriptCompiler::CachedData, std::__1::default_delete<v8::ScriptCompiler::CachedData> > >(char const*&, std::__1::unique_ptr<v8::ScriptCompiler::CachedData, std::__1::default_delete<v8::ScriptCompiler::CachedData> >&&)
     49   18.5%      Function: ^compileForInternalLoader node:internal/bootstrap/loaders:299:27
     43   87.8%        Function: ^nativeModuleRequire node:internal/bootstrap/loaders:332:29
     10   23.3%          Function: ~<anonymous> node:crypto:1:1
     10  100.0%            Function: ^compileForInternalLoader node:internal/bootstrap/loaders:299:27
      6   14.0%          Function: ~<anonymous> node:http:1:1
      6  100.0%            Function: ^compileForInternalLoader node:internal/bootstrap/loaders:299:27
      4    9.3%          Function: ~<anonymous> node:internal/cluster/primary:1:1
      4  100.0%            Function: ^compileForInternalLoader node:internal/bootstrap/loaders:299:27
      4    9.3%          Function: ~<anonymous> node:internal/child_process:1:1
      4  100.0%            Function: ^compileForInternalLoader node:internal/bootstrap/loaders:299:27
      4    9.3%          Function: ~<anonymous> node:_http_client:1:1
      4  100.0%            Function: ^compileForInternalLoader node:internal/bootstrap/loaders:299:27
      3    7.0%          Function: ~<anonymous> node:child_process:1:1
      3  100.0%            Function: ^compileForInternalLoader node:internal/bootstrap/loaders:299:27
      2    4.7%          LazyCompile: ~lazyRequire node:internal/crypto/util:67:21
      2  100.0%            LazyCompile: ~get node:crypto:287:8
      2    4.7%          LazyCompile: ~initCJSParse node:internal/modules/esm/translators:58:28
      2  100.0%            LazyCompile: ~commonjsStrategy node:internal/modules/esm/translators:148:60
      2    4.7%          Function: ~<anonymous> node:internal/crypto/hkdf:1:1
      2  100.0%            Function: ^compileForInternalLoader node:internal/bootstrap/loaders:299:27
      1    2.3%          LazyCompile: ~listenInCluster node:net:1410:25
      1  100.0%            LazyCompile: ~Server.listen node:net:1453:35
      1    2.3%          LazyCompile: ~lazyLoadStreams node:fs:2858:25
      1  100.0%            LazyCompile: ~get ReadStream node:fs:3001:17
      1    2.3%          Function: ~<anonymous> node:internal/crypto/util:1:1
      1  100.0%            Function: ^compileForInternalLoader node:internal/bootstrap/loaders:299:27
      1    2.3%          Function: ~<anonymous> node:internal/crypto/pbkdf2:1:1
      1  100.0%            Function: ^compileForInternalLoader node:internal/bootstrap/loaders:299:27
      1    2.3%          Function: ~<anonymous> node:cluster:1:1
      1  100.0%            Function: ^compileForInternalLoader node:internal/bootstrap/loaders:299:27
      1    2.3%          Function: ~<anonymous> node:_http_common:1:1
      1  100.0%            Function: ^compileForInternalLoader node:internal/bootstrap/loaders:299:27
      3    6.1%        LazyCompile: ~compileForPublicLoader node:internal/bootstrap/loaders:246:25
      2   66.7%          LazyCompile: ~loadNativeModule node:internal/modules/cjs/helpers:44:26
      1   50.0%            LazyCompile: ~builtinStrategy node:internal/modules/esm/translators:254:58
      1   50.0%            LazyCompile: ~Module._load node:internal/modules/cjs/loader:757:24
      1   33.3%          Function: ^loadNativeModule node:internal/modules/cjs/helpers:44:26
      1  100.0%            Function: ^Module._load node:internal/modules/cjs/loader:757:24
      3    6.1%        Function: ^compileForPublicLoader node:internal/bootstrap/loaders:246:25
      3  100.0%          Function: ^loadNativeModule node:internal/modules/cjs/helpers:44:26
      3  100.0%            Function: ^Module._load node:internal/modules/cjs/loader:757:24
     42   15.8%      LazyCompile: ~pbkdf2Sync node:internal/crypto/pbkdf2:68:20
     42  100.0%        LazyCompile: ~<anonymous> file:///Users/kevjo_oe/Documents/CoderHouse/programacion_backend32085/Clases/clase-32/3-ejemplo-profiling/server.js:30:21
     42  100.0%          LazyCompile: ~handle /Users/kevjo_oe/Documents/CoderHouse/programacion_backend32085/Clases/clase-32/3-ejemplo-profiling/node_modules/express/lib/router/layer.js:86:49
     42  100.0%            LazyCompile: ~next /Users/kevjo_oe/Documents/CoderHouse/programacion_backend32085/Clases/clase-32/3-ejemplo-profiling/node_modules/express/lib/router/route.js:116:16
     34   12.8%      LazyCompile: ~compileForInternalLoader node:internal/bootstrap/loaders:299:27
     34  100.0%        LazyCompile: ~nativeModuleRequire node:internal/bootstrap/loaders:332:29
      6   17.6%          Function: ~<anonymous> node:internal/modules/esm/loader:1:1
      6  100.0%            LazyCompile: ~compileForInternalLoader node:internal/bootstrap/loaders:299:27
      5   14.7%          Function: ~<anonymous> node:internal/modules/esm/fetch_module:1:1
      5  100.0%            LazyCompile: ~compileForInternalLoader node:internal/bootstrap/loaders:299:27
      4   11.8%          LazyCompile: ~initializeCJSLoader node:internal/bootstrap/pre_execution:477:29
      4  100.0%            LazyCompile: ~prepareMainThreadExecution node:internal/bootstrap/pre_execution:28:36
      4   11.8%          Function: ~<anonymous> node:internal/process/esm_loader:1:1
      4  100.0%            LazyCompile: ~compileForInternalLoader node:internal/bootstrap/loaders:299:27
      3    8.8%          Function: ~<anonymous> node:internal/modules/esm/get_source:1:1
      3  100.0%            LazyCompile: ~compileForInternalLoader node:internal/bootstrap/loaders:299:27
      2    5.9%          Function: ~<anonymous> node:internal/modules/esm/get_format:1:1
      2  100.0%            LazyCompile: ~compileForInternalLoader node:internal/bootstrap/loaders:299:27
      1    2.9%          LazyCompile: ~initializeSourceMapsHandlers node:internal/bootstrap/pre_execution:516:38
      1  100.0%            LazyCompile: ~prepareMainThreadExecution node:internal/bootstrap/pre_execution:28:36
      1    2.9%          LazyCompile: ~initializeReport node:internal/bootstrap/pre_execution:238:26
      1  100.0%            LazyCompile: ~prepareMainThreadExecution node:internal/bootstrap/pre_execution:28:36
      1    2.9%          LazyCompile: ~get BlockList node:net:1826:16
      1  100.0%            Function: ~<anonymous> node:internal/modules/esm/fetch_module:1:1
      1    2.9%          Function: ~<anonymous> node:net:1:1
      1  100.0%            LazyCompile: ~compileForInternalLoader node:internal/bootstrap/loaders:299:27
      1    2.9%          Function: ~<anonymous> node:internal/source_map/source_map_cache:1:1
      1  100.0%            LazyCompile: ~compileForInternalLoader node:internal/bootstrap/loaders:299:27
      1    2.9%          Function: ~<anonymous> node:internal/modules/esm/resolve:1:1
      1  100.0%            LazyCompile: ~compileForInternalLoader node:internal/bootstrap/loaders:299:27
      1    2.9%          Function: ~<anonymous> node:internal/modules/esm/module_map:1:1
      1  100.0%            LazyCompile: ~compileForInternalLoader node:internal/bootstrap/loaders:299:27
      1    2.9%          Function: ~<anonymous> node:internal/modules/cjs/loader:1:1
      1  100.0%            LazyCompile: ~compileForInternalLoader node:internal/bootstrap/loaders:299:27
      1    2.9%          Function: ~<anonymous> node:internal/main/run_main_module:1:1
      1    2.9%          Function: ~<anonymous> node:internal/fs/promises:1:1
      1  100.0%            LazyCompile: ~compileForInternalLoader node:internal/bootstrap/loaders:299:27
     16    6.0%      Function: ^writevGeneric node:internal/stream_base_commons:122:23
     15   93.8%        Function: ^Socket._writeGeneric node:net:791:42
     15  100.0%          Function: ^Socket._writev node:net:823:36
     15  100.0%            Function: ^doWrite node:internal/streams/writable:398:17
      1    6.3%        LazyCompile: ~Socket._writeGeneric node:net:791:42
      1  100.0%          Function: ^Socket._writev node:net:823:36
      1  100.0%            LazyCompile: ~doWrite node:internal/streams/writable:398:17
      9    3.4%      t std::__1::unique_ptr<std::__1::__hash_node<std::__1::__hash_value_type<std::__1::basic_string<char, std::__1::char_traits<char>, std::__1::allocator<char> >, std::__1::unique_ptr<v8::ScriptCompiler::CachedData, std::__1::default_delete<v8::ScriptCompiler::CachedData> > >, void*>, std::__1::__hash_node_destructor<std::__1::allocator<std::__1::__hash_node<std::__1::__hash_value_type<std::__1::basic_string<char, std::__1::char_traits<char>, std::__1::allocator<char> >, std::__1::unique_ptr<v8::ScriptCompiler::CachedData, std::__1::default_delete<v8::ScriptCompiler::CachedData> > >, void*> > > > std::__1::__hash_table<std::__1::__hash_value_type<std::__1::basic_string<char, std::__1::char_traits<char>, std::__1::allocator<char> >, std::__1::unique_ptr<v8::ScriptCompiler::CachedData, std::__1::default_delete<v8::ScriptCompiler::CachedData> > >, std::__1::__unordered_map_hasher<std::__1::basic_string<char, std::__1::char_traits<char>, std::__1::allocator<char> >, std::__1::__hash_value_type<std::__1::basic_string<char, std::__1::char_traits<char>, std::__1::allocator<char> >, std::__1::unique_ptr<v8::ScriptCompiler::CachedData, std::__1::default_delete<v8::ScriptCompiler::CachedData> > >, std::__1::hash<std::__1::basic_string<char, std::__1::char_traits<char>, std::__1::allocator<char> > >, true>, std::__1::__unordered_map_equal<std::__1::basic_string<char, std::__1::char_traits<char>, std::__1::allocator<char> >, std::__1::__hash_value_type<std::__1::basic_string<char, std::__1::char_traits<char>, std::__1::allocator<char> >, std::__1::unique_ptr<v8::ScriptCompiler::CachedData, std::__1::default_delete<v8::ScriptCompiler::CachedData> > >, std::__1::equal_to<std::__1::basic_string<char, std::__1::char_traits<char>, std::__1::allocator<char> > >, true>, std::__1::allocator<std::__1::__hash_value_type<std::__1::basic_string<char, std::__1::char_traits<char>, std::__1::allocator<char> >, std::__1::unique_ptr<v8::ScriptCompiler::CachedData, std::__1::default_delete<v8::ScriptCompiler::CachedData> > > > >::__construct_node<char const*&, std::__1::unique_ptr<v8::ScriptCompiler::CachedData, std::__1::default_delete<v8::ScriptCompiler::CachedData> > >(char const*&, std::__1::unique_ptr<v8::ScriptCompiler::CachedData, std::__1::default_delete<v8::ScriptCompiler::CachedData> >&&)
      2   22.2%        Function: ^readPackage node:internal/modules/cjs/loader:290:21
      1   50.0%          Function: ^resolveExports node:internal/modules/cjs/loader:472:24
      1  100.0%            Function: ^Module._findPath node:internal/modules/cjs/loader:494:28
      1   50.0%          Function: ^readPackageScope node:internal/modules/cjs/loader:321:26
      1  100.0%            Function: ^trySelf node:internal/modules/cjs/loader:441:17
      1   11.1%        LazyCompile: ~stringToPath /Users/kevjo_oe/Documents/CoderHouse/programacion_backend32085/Clases/clase-32/3-ejemplo-profiling/node_modules/get-intrinsic/index.js:210:41
      1  100.0%          LazyCompile: ~GetIntrinsic /Users/kevjo_oe/Documents/CoderHouse/programacion_backend32085/Clases/clase-32/3-ejemplo-profiling/node_modules/get-intrinsic/index.js:253:39
      1  100.0%            Function: ~<anonymous> /Users/kevjo_oe/Documents/CoderHouse/programacion_backend32085/Clases/clase-32/3-ejemplo-profiling/node_modules/call-bind/index.js:1:1
      1   11.1%        LazyCompile: ~qstring /Users/kevjo_oe/Documents/CoderHouse/programacion_backend32085/Clases/clase-32/3-ejemplo-profiling/node_modules/content-type/index.js:200:18
      1  100.0%          LazyCompile: ~format /Users/kevjo_oe/Documents/CoderHouse/programacion_backend32085/Clases/clase-32/3-ejemplo-profiling/node_modules/content-type/index.js:65:17
      1  100.0%            LazyCompile: ~setCharset /Users/kevjo_oe/Documents/CoderHouse/programacion_backend32085/Clases/clase-32/3-ejemplo-profiling/node_modules/express/lib/utils.js:248:41
      1   11.1%        Function: ^pipe /Users/kevjo_oe/Documents/CoderHouse/programacion_backend32085/Clases/clase-32/3-ejemplo-profiling/node_modules/send/index.js:506:43
      1  100.0%          Function: ^serveStatic /Users/kevjo_oe/Documents/CoderHouse/programacion_backend32085/Clases/clase-32/3-ejemplo-profiling/node_modules/serve-static/index.js:72:31
      1  100.0%            Function: ^handle /Users/kevjo_oe/Documents/CoderHouse/programacion_backend32085/Clases/clase-32/3-ejemplo-profiling/node_modules/express/lib/router/layer.js:86:49
      1   11.1%        Function: ^parseObject /Users/kevjo_oe/Documents/CoderHouse/programacion_backend32085/Clases/clase-32/3-ejemplo-profiling/node_modules/qs/lib/parse.js:115:28
      1  100.0%          Function: ^parseQueryStringKeys /Users/kevjo_oe/Documents/CoderHouse/programacion_backend32085/Clases/clase-32/3-ejemplo-profiling/node_modules/qs/lib/parse.js:150:46
      1  100.0%            Function: ^module.exports /Users/kevjo_oe/Documents/CoderHouse/programacion_backend32085/Clases/clase-32/3-ejemplo-profiling/node_modules/qs/lib/parse.js:239:27
      1   11.1%        Function: ^normalize node:path:1127:12
      1  100.0%          Function: ^join node:path:1166:7
      1  100.0%            Function: ^pipe /Users/kevjo_oe/Documents/CoderHouse/programacion_backend32085/Clases/clase-32/3-ejemplo-profiling/node_modules/send/index.js:506:43
      1   11.1%        Function: ^header /Users/kevjo_oe/Documents/CoderHouse/programacion_backend32085/Clases/clase-32/3-ejemplo-profiling/node_modules/express/lib/response.js:777:29
      1  100.0%          Function: ^contentType /Users/kevjo_oe/Documents/CoderHouse/programacion_backend32085/Clases/clase-32/3-ejemplo-profiling/node_modules/express/lib/response.js:619:32
      1  100.0%            Function: ^sendStatus /Users/kevjo_oe/Documents/CoderHouse/programacion_backend32085/Clases/clase-32/3-ejemplo-profiling/node_modules/express/lib/response.js:369:37
      1   11.1%        Function: ^FastBuffer node:internal/buffer:958:14
      1  100.0%          Function: ^createUnsafeBuffer node:internal/buffer:1059:28
      1  100.0%            Function: ^createPool node:buffer:151:20
      3    1.1%      LazyCompile: ~_finish node:_http_server:204:52
      3  100.0%        LazyCompile: ~end node:_http_outgoing:833:45
      3  100.0%          LazyCompile: ~send /Users/kevjo_oe/Documents/CoderHouse/programacion_backend32085/Clases/clase-32/3-ejemplo-profiling/node_modules/express/lib/response.js:111:25
      3  100.0%            LazyCompile: ~sendStatus /Users/kevjo_oe/Documents/CoderHouse/programacion_backend32085/Clases/clase-32/3-ejemplo-profiling/node_modules/express/lib/response.js:369:37
      3    1.1%      Function: ^send /Users/kevjo_oe/Documents/CoderHouse/programacion_backend32085/Clases/clase-32/3-ejemplo-profiling/node_modules/express/lib/response.js:111:25
      3  100.0%        Function: ^sendStatus /Users/kevjo_oe/Documents/CoderHouse/programacion_backend32085/Clases/clase-32/3-ejemplo-profiling/node_modules/express/lib/response.js:369:37
      3  100.0%          Function: ^<anonymous> file:///Users/kevjo_oe/Documents/CoderHouse/programacion_backend32085/Clases/clase-32/3-ejemplo-profiling/server.js:82:73
      3  100.0%            Function: ^job.ondone node:internal/crypto/pbkdf2:56:16
      3    1.1%      Function: ^readPackage node:internal/modules/cjs/loader:290:21
      1   33.3%        LazyCompile: ~resolveExports node:internal/modules/cjs/loader:472:24
      1  100.0%          Function: ^Module._findPath node:internal/modules/cjs/loader:494:28
      1  100.0%            LazyCompile: ~Module._resolveFilename node:internal/modules/cjs/loader:848:35
      1   33.3%        Function: ^resolveExports node:internal/modules/cjs/loader:472:24
      1  100.0%          Function: ^Module._findPath node:internal/modules/cjs/loader:494:28
      1  100.0%            Function: ^Module._resolveFilename node:internal/modules/cjs/loader:848:35
      1   33.3%        Function: ^readPackageScope node:internal/modules/cjs/loader:321:26
      1  100.0%          Function: ^Module._extensions..js node:internal/modules/cjs/loader:1114:37
      1  100.0%            Function: ^Module.load node:internal/modules/cjs/loader:969:33
      3    1.1%      Function: ^parserOnIncoming node:_http_server:857:26
      3  100.0%        Function: ^parserOnHeadersComplete node:_http_common:77:33

    158    7.9%  /usr/lib/system/libsystem_kernel.dylib
      2    1.3%    t std::__1::unique_ptr<std::__1::__hash_node<std::__1::__hash_value_type<std::__1::basic_string<char, std::__1::char_traits<char>, std::__1::allocator<char> >, std::__1::unique_ptr<v8::ScriptCompiler::CachedData, std::__1::default_delete<v8::ScriptCompiler::CachedData> > >, void*>, std::__1::__hash_node_destructor<std::__1::allocator<std::__1::__hash_node<std::__1::__hash_value_type<std::__1::basic_string<char, std::__1::char_traits<char>, std::__1::allocator<char> >, std::__1::unique_ptr<v8::ScriptCompiler::CachedData, std::__1::default_delete<v8::ScriptCompiler::CachedData> > >, void*> > > > std::__1::__hash_table<std::__1::__hash_value_type<std::__1::basic_string<char, std::__1::char_traits<char>, std::__1::allocator<char> >, std::__1::unique_ptr<v8::ScriptCompiler::CachedData, std::__1::default_delete<v8::ScriptCompiler::CachedData> > >, std::__1::__unordered_map_hasher<std::__1::basic_string<char, std::__1::char_traits<char>, std::__1::allocator<char> >, std::__1::__hash_value_type<std::__1::basic_string<char, std::__1::char_traits<char>, std::__1::allocator<char> >, std::__1::unique_ptr<v8::ScriptCompiler::CachedData, std::__1::default_delete<v8::ScriptCompiler::CachedData> > >, std::__1::hash<std::__1::basic_string<char, std::__1::char_traits<char>, std::__1::allocator<char> > >, true>, std::__1::__unordered_map_equal<std::__1::basic_string<char, std::__1::char_traits<char>, std::__1::allocator<char> >, std::__1::__hash_value_type<std::__1::basic_string<char, std::__1::char_traits<char>, std::__1::allocator<char> >, std::__1::unique_ptr<v8::ScriptCompiler::CachedData, std::__1::default_delete<v8::ScriptCompiler::CachedData> > >, std::__1::equal_to<std::__1::basic_string<char, std::__1::char_traits<char>, std::__1::allocator<char> > >, true>, std::__1::allocator<std::__1::__hash_value_type<std::__1::basic_string<char, std::__1::char_traits<char>, std::__1::allocator<char> >, std::__1::unique_ptr<v8::ScriptCompiler::CachedData, std::__1::default_delete<v8::ScriptCompiler::CachedData> > > > >::__construct_node<char const*&, std::__1::unique_ptr<v8::ScriptCompiler::CachedData, std::__1::default_delete<v8::ScriptCompiler::CachedData> > >(char const*&, std::__1::unique_ptr<v8::ScriptCompiler::CachedData, std::__1::default_delete<v8::ScriptCompiler::CachedData> >&&)
      1   50.0%      LazyCompile: ~value node:internal/console/constructor:321:20
      1  100.0%        LazyCompile: ~log node:internal/console/constructor:359:6
      1  100.0%          t std::__1::unique_ptr<std::__1::__hash_node<std::__1::__hash_value_type<std::__1::basic_string<char, std::__1::char_traits<char>, std::__1::allocator<char> >, std::__1::unique_ptr<v8::ScriptCompiler::CachedData, std::__1::default_delete<v8::ScriptCompiler::CachedData> > >, void*>, std::__1::__hash_node_destructor<std::__1::allocator<std::__1::__hash_node<std::__1::__hash_value_type<std::__1::basic_string<char, std::__1::char_traits<char>, std::__1::allocator<char> >, std::__1::unique_ptr<v8::ScriptCompiler::CachedData, std::__1::default_delete<v8::ScriptCompiler::CachedData> > >, void*> > > > std::__1::__hash_table<std::__1::__hash_value_type<std::__1::basic_string<char, std::__1::char_traits<char>, std::__1::allocator<char> >, std::__1::unique_ptr<v8::ScriptCompiler::CachedData, std::__1::default_delete<v8::ScriptCompiler::CachedData> > >, std::__1::__unordered_map_hasher<std::__1::basic_string<char, std::__1::char_traits<char>, std::__1::allocator<char> >, std::__1::__hash_value_type<std::__1::basic_string<char, std::__1::char_traits<char>, std::__1::allocator<char> >, std::__1::unique_ptr<v8::ScriptCompiler::CachedData, std::__1::default_delete<v8::ScriptCompiler::CachedData> > >, std::__1::hash<std::__1::basic_string<char, std::__1::char_traits<char>, std::__1::allocator<char> > >, true>, std::__1::__unordered_map_equal<std::__1::basic_string<char, std::__1::char_traits<char>, std::__1::allocator<char> >, std::__1::__hash_value_type<std::__1::basic_string<char, std::__1::char_traits<char>, std::__1::allocator<char> >, std::__1::unique_ptr<v8::ScriptCompiler::CachedData, std::__1::default_delete<v8::ScriptCompiler::CachedData> > >, std::__1::equal_to<std::__1::basic_string<char, std::__1::char_traits<char>, std::__1::allocator<char> > >, true>, std::__1::allocator<std::__1::__hash_value_type<std::__1::basic_string<char, std::__1::char_traits<char>, std::__1::allocator<char> >, std::__1::unique_ptr<v8::ScriptCompiler::CachedData, std::__1::default_delete<v8::ScriptCompiler::CachedData> > > > >::__construct_node<char const*&, std::__1::unique_ptr<v8::ScriptCompiler::CachedData, std::__1::default_delete<v8::ScriptCompiler::CachedData> > >(char const*&, std::__1::unique_ptr<v8::ScriptCompiler::CachedData, std::__1::default_delete<v8::ScriptCompiler::CachedData> >&&)
      1  100.0%            LazyCompile: ~<anonymous> file:///Users/kevjo_oe/Documents/CoderHouse/programacion_backend32085/Clases/clase-32/3-ejemplo-profiling/server.js:93:33
      1   50.0%      LazyCompile: ~cache node:internal/http:26:15
      1  100.0%        LazyCompile: ~utcDate node:internal/http:21:17
      1  100.0%          LazyCompile: ~_storeHeader node:_http_outgoing:374:22
      1  100.0%            LazyCompile: ~writeHead node:_http_server:270:19

     44    2.2%  T node::contextify::ContextifyContext::CompileFunction(v8::FunctionCallbackInfo<v8::Value> const&)
     44  100.0%    t std::__1::unique_ptr<std::__1::__hash_node<std::__1::__hash_value_type<std::__1::basic_string<char, std::__1::char_traits<char>, std::__1::allocator<char> >, std::__1::unique_ptr<v8::ScriptCompiler::CachedData, std::__1::default_delete<v8::ScriptCompiler::CachedData> > >, void*>, std::__1::__hash_node_destructor<std::__1::allocator<std::__1::__hash_node<std::__1::__hash_value_type<std::__1::basic_string<char, std::__1::char_traits<char>, std::__1::allocator<char> >, std::__1::unique_ptr<v8::ScriptCompiler::CachedData, std::__1::default_delete<v8::ScriptCompiler::CachedData> > >, void*> > > > std::__1::__hash_table<std::__1::__hash_value_type<std::__1::basic_string<char, std::__1::char_traits<char>, std::__1::allocator<char> >, std::__1::unique_ptr<v8::ScriptCompiler::CachedData, std::__1::default_delete<v8::ScriptCompiler::CachedData> > >, std::__1::__unordered_map_hasher<std::__1::basic_string<char, std::__1::char_traits<char>, std::__1::allocator<char> >, std::__1::__hash_value_type<std::__1::basic_string<char, std::__1::char_traits<char>, std::__1::allocator<char> >, std::__1::unique_ptr<v8::ScriptCompiler::CachedData, std::__1::default_delete<v8::ScriptCompiler::CachedData> > >, std::__1::hash<std::__1::basic_string<char, std::__1::char_traits<char>, std::__1::allocator<char> > >, true>, std::__1::__unordered_map_equal<std::__1::basic_string<char, std::__1::char_traits<char>, std::__1::allocator<char> >, std::__1::__hash_value_type<std::__1::basic_string<char, std::__1::char_traits<char>, std::__1::allocator<char> >, std::__1::unique_ptr<v8::ScriptCompiler::CachedData, std::__1::default_delete<v8::ScriptCompiler::CachedData> > >, std::__1::equal_to<std::__1::basic_string<char, std::__1::char_traits<char>, std::__1::allocator<char> > >, true>, std::__1::allocator<std::__1::__hash_value_type<std::__1::basic_string<char, std::__1::char_traits<char>, std::__1::allocator<char> >, std::__1::unique_ptr<v8::ScriptCompiler::CachedData, std::__1::default_delete<v8::ScriptCompiler::CachedData> > > > >::__construct_node<char const*&, std::__1::unique_ptr<v8::ScriptCompiler::CachedData, std::__1::default_delete<v8::ScriptCompiler::CachedData> > >(char const*&, std::__1::unique_ptr<v8::ScriptCompiler::CachedData, std::__1::default_delete<v8::ScriptCompiler::CachedData> >&&)
     40   90.9%      Function: ^compileFunction node:vm:308:25
     35   87.5%        Function: ^wrapSafe node:internal/modules/cjs/loader:1017:18
     33   94.3%          Function: ^Module._compile node:internal/modules/cjs/loader:1059:37
     17   51.5%            Function: ^Module._extensions..js node:internal/modules/cjs/loader:1114:37
     16   48.5%            LazyCompile: ~Module._extensions..js node:internal/modules/cjs/loader:1114:37
      2    5.7%          LazyCompile: ~Module._compile node:internal/modules/cjs/loader:1059:37
      2  100.0%            LazyCompile: ~Module._extensions..js node:internal/modules/cjs/loader:1114:37
      5   12.5%        LazyCompile: ~wrapSafe node:internal/modules/cjs/loader:1017:18
      5  100.0%          LazyCompile: ~Module._compile node:internal/modules/cjs/loader:1059:37
      5  100.0%            LazyCompile: ~Module._extensions..js node:internal/modules/cjs/loader:1114:37
      4    9.1%      LazyCompile: ~compileFunction node:vm:308:25
      4  100.0%        LazyCompile: ~wrapSafe node:internal/modules/cjs/loader:1017:18
      4  100.0%          LazyCompile: ~Module._compile node:internal/modules/cjs/loader:1059:37
      4  100.0%            LazyCompile: ~Module._extensions..js node:internal/modules/cjs/loader:1114:37

     38    1.9%  /usr/lib/system/libsystem_pthread.dylib
     34   89.5%    t std::__1::unique_ptr<std::__1::__hash_node<std::__1::__hash_value_type<std::__1::basic_string<char, std::__1::char_traits<char>, std::__1::allocator<char> >, std::__1::unique_ptr<v8::ScriptCompiler::CachedData, std::__1::default_delete<v8::ScriptCompiler::CachedData> > >, void*>, std::__1::__hash_node_destructor<std::__1::allocator<std::__1::__hash_node<std::__1::__hash_value_type<std::__1::basic_string<char, std::__1::char_traits<char>, std::__1::allocator<char> >, std::__1::unique_ptr<v8::ScriptCompiler::CachedData, std::__1::default_delete<v8::ScriptCompiler::CachedData> > >, void*> > > > std::__1::__hash_table<std::__1::__hash_value_type<std::__1::basic_string<char, std::__1::char_traits<char>, std::__1::allocator<char> >, std::__1::unique_ptr<v8::ScriptCompiler::CachedData, std::__1::default_delete<v8::ScriptCompiler::CachedData> > >, std::__1::__unordered_map_hasher<std::__1::basic_string<char, std::__1::char_traits<char>, std::__1::allocator<char> >, std::__1::__hash_value_type<std::__1::basic_string<char, std::__1::char_traits<char>, std::__1::allocator<char> >, std::__1::unique_ptr<v8::ScriptCompiler::CachedData, std::__1::default_delete<v8::ScriptCompiler::CachedData> > >, std::__1::hash<std::__1::basic_string<char, std::__1::char_traits<char>, std::__1::allocator<char> > >, true>, std::__1::__unordered_map_equal<std::__1::basic_string<char, std::__1::char_traits<char>, std::__1::allocator<char> >, std::__1::__hash_value_type<std::__1::basic_string<char, std::__1::char_traits<char>, std::__1::allocator<char> >, std::__1::unique_ptr<v8::ScriptCompiler::CachedData, std::__1::default_delete<v8::ScriptCompiler::CachedData> > >, std::__1::equal_to<std::__1::basic_string<char, std::__1::char_traits<char>, std::__1::allocator<char> > >, true>, std::__1::allocator<std::__1::__hash_value_type<std::__1::basic_string<char, std::__1::char_traits<char>, std::__1::allocator<char> >, std::__1::unique_ptr<v8::ScriptCompiler::CachedData, std::__1::default_delete<v8::ScriptCompiler::CachedData> > > > >::__construct_node<char const*&, std::__1::unique_ptr<v8::ScriptCompiler::CachedData, std::__1::default_delete<v8::ScriptCompiler::CachedData> > >(char const*&, std::__1::unique_ptr<v8::ScriptCompiler::CachedData, std::__1::default_delete<v8::ScriptCompiler::CachedData> >&&)
      3    8.8%      LazyCompile: ~onParseError node:internal/url:552:22
      3  100.0%        t std::__1::unique_ptr<std::__1::__hash_node<std::__1::__hash_value_type<std::__1::basic_string<char, std::__1::char_traits<char>, std::__1::allocator<char> >, std::__1::unique_ptr<v8::ScriptCompiler::CachedData, std::__1::default_delete<v8::ScriptCompiler::CachedData> > >, void*>, std::__1::__hash_node_destructor<std::__1::allocator<std::__1::__hash_node<std::__1::__hash_value_type<std::__1::basic_string<char, std::__1::char_traits<char>, std::__1::allocator<char> >, std::__1::unique_ptr<v8::ScriptCompiler::CachedData, std::__1::default_delete<v8::ScriptCompiler::CachedData> > >, void*> > > > std::__1::__hash_table<std::__1::__hash_value_type<std::__1::basic_string<char, std::__1::char_traits<char>, std::__1::allocator<char> >, std::__1::unique_ptr<v8::ScriptCompiler::CachedData, std::__1::default_delete<v8::ScriptCompiler::CachedData> > >, std::__1::__unordered_map_hasher<std::__1::basic_string<char, std::__1::char_traits<char>, std::__1::allocator<char> >, std::__1::__hash_value_type<std::__1::basic_string<char, std::__1::char_traits<char>, std::__1::allocator<char> >, std::__1::unique_ptr<v8::ScriptCompiler::CachedData, std::__1::default_delete<v8::ScriptCompiler::CachedData> > >, std::__1::hash<std::__1::basic_string<char, std::__1::char_traits<char>, std::__1::allocator<char> > >, true>, std::__1::__unordered_map_equal<std::__1::basic_string<char, std::__1::char_traits<char>, std::__1::allocator<char> >, std::__1::__hash_value_type<std::__1::basic_string<char, std::__1::char_traits<char>, std::__1::allocator<char> >, std::__1::unique_ptr<v8::ScriptCompiler::CachedData, std::__1::default_delete<v8::ScriptCompiler::CachedData> > >, std::__1::equal_to<std::__1::basic_string<char, std::__1::char_traits<char>, std::__1::allocator<char> > >, true>, std::__1::allocator<std::__1::__hash_value_type<std::__1::basic_string<char, std::__1::char_traits<char>, std::__1::allocator<char> >, std::__1::unique_ptr<v8::ScriptCompiler::CachedData, std::__1::default_delete<v8::ScriptCompiler::CachedData> > > > >::__construct_node<char const*&, std::__1::unique_ptr<v8::ScriptCompiler::CachedData, std::__1::default_delete<v8::ScriptCompiler::CachedData> > >(char const*&, std::__1::unique_ptr<v8::ScriptCompiler::CachedData, std::__1::default_delete<v8::ScriptCompiler::CachedData> >&&)
      3  100.0%          Function: ^URL node:internal/url:621:14
      3  100.0%            LazyCompile: ~defaultResolve node:internal/modules/esm/resolve:1128:30
      2    5.9%      t std::__1::unique_ptr<std::__1::__hash_node<std::__1::__hash_value_type<std::__1::basic_string<char, std::__1::char_traits<char>, std::__1::allocator<char> >, std::__1::unique_ptr<v8::ScriptCompiler::CachedData, std::__1::default_delete<v8::ScriptCompiler::CachedData> > >, void*>, std::__1::__hash_node_destructor<std::__1::allocator<std::__1::__hash_node<std::__1::__hash_value_type<std::__1::basic_string<char, std::__1::char_traits<char>, std::__1::allocator<char> >, std::__1::unique_ptr<v8::ScriptCompiler::CachedData, std::__1::default_delete<v8::ScriptCompiler::CachedData> > >, void*> > > > std::__1::__hash_table<std::__1::__hash_value_type<std::__1::basic_string<char, std::__1::char_traits<char>, std::__1::allocator<char> >, std::__1::unique_ptr<v8::ScriptCompiler::CachedData, std::__1::default_delete<v8::ScriptCompiler::CachedData> > >, std::__1::__unordered_map_hasher<std::__1::basic_string<char, std::__1::char_traits<char>, std::__1::allocator<char> >, std::__1::__hash_value_type<std::__1::basic_string<char, std::__1::char_traits<char>, std::__1::allocator<char> >, std::__1::unique_ptr<v8::ScriptCompiler::CachedData, std::__1::default_delete<v8::ScriptCompiler::CachedData> > >, std::__1::hash<std::__1::basic_string<char, std::__1::char_traits<char>, std::__1::allocator<char> > >, true>, std::__1::__unordered_map_equal<std::__1::basic_string<char, std::__1::char_traits<char>, std::__1::allocator<char> >, std::__1::__hash_value_type<std::__1::basic_string<char, std::__1::char_traits<char>, std::__1::allocator<char> >, std::__1::unique_ptr<v8::ScriptCompiler::CachedData, std::__1::default_delete<v8::ScriptCompiler::CachedData> > >, std::__1::equal_to<std::__1::basic_string<char, std::__1::char_traits<char>, std::__1::allocator<char> > >, true>, std::__1::allocator<std::__1::__hash_value_type<std::__1::basic_string<char, std::__1::char_traits<char>, std::__1::allocator<char> >, std::__1::unique_ptr<v8::ScriptCompiler::CachedData, std::__1::default_delete<v8::ScriptCompiler::CachedData> > > > >::__construct_node<char const*&, std::__1::unique_ptr<v8::ScriptCompiler::CachedData, std::__1::default_delete<v8::ScriptCompiler::CachedData> > >(char const*&, std::__1::unique_ptr<v8::ScriptCompiler::CachedData, std::__1::default_delete<v8::ScriptCompiler::CachedData> >&&)
      1   50.0%        LazyCompile: ~<anonymous> file:///Users/kevjo_oe/Documents/CoderHouse/programacion_backend32085/Clases/clase-32/3-ejemplo-profiling/server.js:93:33
      1  100.0%          LazyCompile: ~onceWrapper node:events:636:21
      1  100.0%            LazyCompile: ~emit node:events:475:44
      1   50.0%        Function: ^getOwn node:internal/bootstrap/loaders:180:16
      1  100.0%          Function: ^syncExports node:internal/bootstrap/loaders:287:14
      1  100.0%            Function: ^<anonymous> node:internal/bootstrap/loaders:273:15
      2    5.9%      LazyCompile: ~value node:internal/console/constructor:321:20
      2  100.0%        LazyCompile: ~log node:internal/console/constructor:359:6
      2  100.0%          t std::__1::unique_ptr<std::__1::__hash_node<std::__1::__hash_value_type<std::__1::basic_string<char, std::__1::char_traits<char>, std::__1::allocator<char> >, std::__1::unique_ptr<v8::ScriptCompiler::CachedData, std::__1::default_delete<v8::ScriptCompiler::CachedData> > >, void*>, std::__1::__hash_node_destructor<std::__1::allocator<std::__1::__hash_node<std::__1::__hash_value_type<std::__1::basic_string<char, std::__1::char_traits<char>, std::__1::allocator<char> >, std::__1::unique_ptr<v8::ScriptCompiler::CachedData, std::__1::default_delete<v8::ScriptCompiler::CachedData> > >, void*> > > > std::__1::__hash_table<std::__1::__hash_value_type<std::__1::basic_string<char, std::__1::char_traits<char>, std::__1::allocator<char> >, std::__1::unique_ptr<v8::ScriptCompiler::CachedData, std::__1::default_delete<v8::ScriptCompiler::CachedData> > >, std::__1::__unordered_map_hasher<std::__1::basic_string<char, std::__1::char_traits<char>, std::__1::allocator<char> >, std::__1::__hash_value_type<std::__1::basic_string<char, std::__1::char_traits<char>, std::__1::allocator<char> >, std::__1::unique_ptr<v8::ScriptCompiler::CachedData, std::__1::default_delete<v8::ScriptCompiler::CachedData> > >, std::__1::hash<std::__1::basic_string<char, std::__1::char_traits<char>, std::__1::allocator<char> > >, true>, std::__1::__unordered_map_equal<std::__1::basic_string<char, std::__1::char_traits<char>, std::__1::allocator<char> >, std::__1::__hash_value_type<std::__1::basic_string<char, std::__1::char_traits<char>, std::__1::allocator<char> >, std::__1::unique_ptr<v8::ScriptCompiler::CachedData, std::__1::default_delete<v8::ScriptCompiler::CachedData> > >, std::__1::equal_to<std::__1::basic_string<char, std::__1::char_traits<char>, std::__1::allocator<char> > >, true>, std::__1::allocator<std::__1::__hash_value_type<std::__1::basic_string<char, std::__1::char_traits<char>, std::__1::allocator<char> >, std::__1::unique_ptr<v8::ScriptCompiler::CachedData, std::__1::default_delete<v8::ScriptCompiler::CachedData> > > > >::__construct_node<char const*&, std::__1::unique_ptr<v8::ScriptCompiler::CachedData, std::__1::default_delete<v8::ScriptCompiler::CachedData> > >(char const*&, std::__1::unique_ptr<v8::ScriptCompiler::CachedData, std::__1::default_delete<v8::ScriptCompiler::CachedData> >&&)
      2  100.0%            LazyCompile: ~<anonymous> file:///Users/kevjo_oe/Documents/CoderHouse/programacion_backend32085/Clases/clase-32/3-ejemplo-profiling/server.js:93:33
      2    5.9%      LazyCompile: ~toRealPath node:internal/modules/cjs/loader:393:20
      2  100.0%        LazyCompile: ~Module._findPath node:internal/modules/cjs/loader:494:28
      2  100.0%          LazyCompile: ~resolveMainPath node:internal/modules/run_main:15:25
      2  100.0%            LazyCompile: ~executeUserEntryPoint node:internal/modules/run_main:70:31
      2    5.9%      LazyCompile: ~patchProcessObject node:internal/bootstrap/pre_execution:89:28
      2  100.0%        LazyCompile: ~prepareMainThreadExecution node:internal/bootstrap/pre_execution:28:36
      2  100.0%          Function: ~<anonymous> node:internal/main/run_main_module:1:1
      2    5.9%      LazyCompile: ~createWritableStdioStream node:internal/bootstrap/switches/is_main_thread:41:35
      2  100.0%        LazyCompile: ~getStderr node:internal/bootstrap/switches/is_main_thread:137:19
      2  100.0%          Function: ~<anonymous> /Users/kevjo_oe/Documents/CoderHouse/programacion_backend32085/Clases/clase-32/3-ejemplo-profiling/node_modules/debug/src/node.js:1:1
      2  100.0%            LazyCompile: ~Module._compile node:internal/modules/cjs/loader:1059:37
      2    5.9%      Function: ~<anonymous> node:internal/fs/promises:1:1
      2  100.0%        LazyCompile: ~compileForInternalLoader node:internal/bootstrap/loaders:299:27
      2  100.0%          LazyCompile: ~nativeModuleRequire node:internal/bootstrap/loaders:332:29
      2  100.0%            Function: ~<anonymous> node:internal/modules/esm/get_source:1:1
      1    2.9%      LazyCompile: ~writeGeneric node:internal/stream_base_commons:147:22
      1  100.0%        LazyCompile: ~Socket._writeGeneric node:net:791:42
      1  100.0%          LazyCompile: ~Socket._write node:net:828:35
      1  100.0%            LazyCompile: ~writeOrBuffer node:internal/streams/writable:365:23
      1    2.9%      LazyCompile: ~stringify node:internal/modules/esm/translators:90:19
      1  100.0%        LazyCompile: ~moduleStrategy node:internal/modules/esm/translators:112:56
      1  100.0%          LazyCompile: ~moduleProvider node:internal/modules/esm/loader:322:28
      1  100.0%            t std::__1::unique_ptr<std::__1::__hash_node<std::__1::__hash_value_type<std::__1::basic_string<char, std::__1::char_traits<char>, std::__1::allocator<char> >, std::__1::unique_ptr<v8::ScriptCompiler::CachedData, std::__1::default_delete<v8::ScriptCompiler::CachedData> > >, void*>, std::__1::__hash_node_destructor<std::__1::allocator<std::__1::__hash_node<std::__1::__hash_value_type<std::__1::basic_string<char, std::__1::char_traits<char>, std::__1::allocator<char> >, std::__1::unique_ptr<v8::ScriptCompiler::CachedData, std::__1::default_delete<v8::ScriptCompiler::CachedData> > >, void*> > > > std::__1::__hash_table<std::__1::__hash_value_type<std::__1::basic_string<char, std::__1::char_traits<char>, std::__1::allocator<char> >, std::__1::unique_ptr<v8::ScriptCompiler::CachedData, std::__1::default_delete<v8::ScriptCompiler::CachedData> > >, std::__1::__unordered_map_hasher<std::__1::basic_string<char, std::__1::char_traits<char>, std::__1::allocator<char> >, std::__1::__hash_value_type<std::__1::basic_string<char, std::__1::char_traits<char>, std::__1::allocator<char> >, std::__1::unique_ptr<v8::ScriptCompiler::CachedData, std::__1::default_delete<v8::ScriptCompiler::CachedData> > >, std::__1::hash<std::__1::basic_string<char, std::__1::char_traits<char>, std::__1::allocator<char> > >, true>, std::__1::__unordered_map_equal<std::__1::basic_string<char, std::__1::char_traits<char>, std::__1::allocator<char> >, std::__1::__hash_value_type<std::__1::basic_string<char, std::__1::char_traits<char>, std::__1::allocator<char> >, std::__1::unique_ptr<v8::ScriptCompiler::CachedData, std::__1::default_delete<v8::ScriptCompiler::CachedData> > >, std::__1::equal_to<std::__1::basic_string<char, std::__1::char_traits<char>, std::__1::allocator<char> > >, true>, std::__1::allocator<std::__1::__hash_value_type<std::__1::basic_string<char, std::__1::char_traits<char>, std::__1::allocator<char> >, std::__1::unique_ptr<v8::ScriptCompiler::CachedData, std::__1::default_delete<v8::ScriptCompiler::CachedData> > > > >::__construct_node<char const*&, std::__1::unique_ptr<v8::ScriptCompiler::CachedData, std::__1::default_delete<v8::ScriptCompiler::CachedData> > >(char const*&, std::__1::unique_ptr<v8::ScriptCompiler::CachedData, std::__1::default_delete<v8::ScriptCompiler::CachedData> >&&)
      1    2.9%      LazyCompile: ~setupWebCrypto node:internal/bootstrap/pre_execution:170:24
      1  100.0%        LazyCompile: ~prepareMainThreadExecution node:internal/bootstrap/pre_execution:28:36
      1  100.0%          Function: ~<anonymous> node:internal/main/run_main_module:1:1
      1    2.9%      LazyCompile: ~setupWarningHandler node:internal/bootstrap/pre_execution:142:29
      1  100.0%        LazyCompile: ~prepareMainThreadExecution node:internal/bootstrap/pre_execution:28:36
      1  100.0%          Function: ~<anonymous> node:internal/main/run_main_module:1:1
      1    2.9%      LazyCompile: ~setStreamTimeout node:internal/stream_base_commons:237:26
      1  100.0%        LazyCompile: ~resOnFinish node:_http_server:793:21
      1  100.0%          LazyCompile: ~emit node:events:475:44
      1  100.0%            LazyCompile: ~onFinish node:_http_outgoing:828:18
      1    2.9%      LazyCompile: ~remove node:internal/linkedlist:16:16
      1  100.0%        LazyCompile: ~append node:internal/linkedlist:30:16
      1  100.0%          LazyCompile: ~insert node:internal/timers:350:16
      1  100.0%            LazyCompile: ~setUnrefTimeout node:internal/timers:372:25
      1    2.9%      LazyCompile: ~realpathSync node:fs:2425:22
      1  100.0%        LazyCompile: ~toRealPath node:internal/modules/cjs/loader:393:20
      1  100.0%          LazyCompile: ~Module._findPath node:internal/modules/cjs/loader:494:28
      1  100.0%            LazyCompile: ~resolveMainPath node:internal/modules/run_main:15:25
      1    2.9%      LazyCompile: ~maybeCacheSourceMap node:internal/source_map/source_map_cache:74:29
      1  100.0%        LazyCompile: ~moduleStrategy node:internal/modules/esm/translators:112:56
      1  100.0%          LazyCompile: ~moduleProvider node:internal/modules/esm/loader:322:28
      1  100.0%            t std::__1::unique_ptr<std::__1::__hash_node<std::__1::__hash_value_type<std::__1::basic_string<char, std::__1::char_traits<char>, std::__1::allocator<char> >, std::__1::unique_ptr<v8::ScriptCompiler::CachedData, std::__1::default_delete<v8::ScriptCompiler::CachedData> > >, void*>, std::__1::__hash_node_destructor<std::__1::allocator<std::__1::__hash_node<std::__1::__hash_value_type<std::__1::basic_string<char, std::__1::char_traits<char>, std::__1::allocator<char> >, std::__1::unique_ptr<v8::ScriptCompiler::CachedData, std::__1::default_delete<v8::ScriptCompiler::CachedData> > >, void*> > > > std::__1::__hash_table<std::__1::__hash_value_type<std::__1::basic_string<char, std::__1::char_traits<char>, std::__1::allocator<char> >, std::__1::unique_ptr<v8::ScriptCompiler::CachedData, std::__1::default_delete<v8::ScriptCompiler::CachedData> > >, std::__1::__unordered_map_hasher<std::__1::basic_string<char, std::__1::char_traits<char>, std::__1::allocator<char> >, std::__1::__hash_value_type<std::__1::basic_string<char, std::__1::char_traits<char>, std::__1::allocator<char> >, std::__1::unique_ptr<v8::ScriptCompiler::CachedData, std::__1::default_delete<v8::ScriptCompiler::CachedData> > >, std::__1::hash<std::__1::basic_string<char, std::__1::char_traits<char>, std::__1::allocator<char> > >, true>, std::__1::__unordered_map_equal<std::__1::basic_string<char, std::__1::char_traits<char>, std::__1::allocator<char> >, std::__1::__hash_value_type<std::__1::basic_string<char, std::__1::char_traits<char>, std::__1::allocator<char> >, std::__1::unique_ptr<v8::ScriptCompiler::CachedData, std::__1::default_delete<v8::ScriptCompiler::CachedData> > >, std::__1::equal_to<std::__1::basic_string<char, std::__1::char_traits<char>, std::__1::allocator<char> > >, true>, std::__1::allocator<std::__1::__hash_value_type<std::__1::basic_string<char, std::__1::char_traits<char>, std::__1::allocator<char> >, std::__1::unique_ptr<v8::ScriptCompiler::CachedData, std::__1::default_delete<v8::ScriptCompiler::CachedData> > > > >::__construct_node<char const*&, std::__1::unique_ptr<v8::ScriptCompiler::CachedData, std::__1::default_delete<v8::ScriptCompiler::CachedData> > >(char const*&, std::__1::unique_ptr<v8::ScriptCompiler::CachedData, std::__1::default_delete<v8::ScriptCompiler::CachedData> >&&)
      1    2.9%      LazyCompile: ~finalizeResolution node:internal/modules/esm/resolve:397:28
      1  100.0%        LazyCompile: ~moduleResolve node:internal/modules/esm/resolve:988:23
      1  100.0%          LazyCompile: ~defaultResolve node:internal/modules/esm/resolve:1128:30
      1  100.0%            LazyCompile: ~resolve node:internal/modules/esm/loader:556:16
      1    2.9%      LazyCompile: ~defaultTriggerAsyncIdScope node:internal/async_hooks:456:36
      1  100.0%        LazyCompile: ~setupListenHandle node:net:1325:27
      1  100.0%          LazyCompile: ~listenInCluster node:net:1410:25
      1  100.0%            LazyCompile: ~Server.listen node:net:1453:35
      1    2.9%      LazyCompile: ~cache node:internal/http:26:15
      1  100.0%        LazyCompile: ~utcDate node:internal/http:21:17
      1  100.0%          LazyCompile: ~_storeHeader node:_http_outgoing:374:22
      1  100.0%            LazyCompile: ~writeHead node:_http_server:270:19
      1    2.9%      LazyCompile: ~_flushOutput node:_http_outgoing:951:63
      1  100.0%        LazyCompile: ~_flush node:_http_outgoing:934:51
      1  100.0%          Function: ^assignSocket node:_http_server:240:62
      1  100.0%            LazyCompile: ~parserOnIncoming node:_http_server:857:26
      1    2.9%      LazyCompile: ~Writable.uncork node:internal/streams/writable:341:37
      1  100.0%        LazyCompile: ~_flushOutput node:_http_outgoing:951:63
      1  100.0%          LazyCompile: ~_writeRaw node:_http_outgoing:344:19
      1  100.0%            LazyCompile: ~_send node:_http_outgoing:319:49
      1    2.9%      LazyCompile: ~Module._findPath node:internal/modules/cjs/loader:494:28
      1  100.0%        LazyCompile: ~Module._resolveFilename node:internal/modules/cjs/loader:848:35
      1  100.0%          LazyCompile: ~<anonymous> node:internal/modules/esm/translators:233:36
      1  100.0%            t std::__1::unique_ptr<std::__1::__hash_node<std::__1::__hash_value_type<std::__1::basic_string<char, std::__1::char_traits<char>, std::__1::allocator<char> >, std::__1::unique_ptr<v8::ScriptCompiler::CachedData, std::__1::default_delete<v8::ScriptCompiler::CachedData> > >, void*>, std::__1::__hash_node_destructor<std::__1::allocator<std::__1::__hash_node<std::__1::__hash_value_type<std::__1::basic_string<char, std::__1::char_traits<char>, std::__1::allocator<char> >, std::__1::unique_ptr<v8::ScriptCompiler::CachedData, std::__1::default_delete<v8::ScriptCompiler::CachedData> > >, void*> > > > std::__1::__hash_table<std::__1::__hash_value_type<std::__1::basic_string<char, std::__1::char_traits<char>, std::__1::allocator<char> >, std::__1::unique_ptr<v8::ScriptCompiler::CachedData, std::__1::default_delete<v8::ScriptCompiler::CachedData> > >, std::__1::__unordered_map_hasher<std::__1::basic_string<char, std::__1::char_traits<char>, std::__1::allocator<char> >, std::__1::__hash_value_type<std::__1::basic_string<char, std::__1::char_traits<char>, std::__1::allocator<char> >, std::__1::unique_ptr<v8::ScriptCompiler::CachedData, std::__1::default_delete<v8::ScriptCompiler::CachedData> > >, std::__1::hash<std::__1::basic_string<char, std::__1::char_traits<char>, std::__1::allocator<char> > >, true>, std::__1::__unordered_map_equal<std::__1::basic_string<char, std::__1::char_traits<char>, std::__1::allocator<char> >, std::__1::__hash_value_type<std::__1::basic_string<char, std::__1::char_traits<char>, std::__1::allocator<char> >, std::__1::unique_ptr<v8::ScriptCompiler::CachedData, std::__1::default_delete<v8::ScriptCompiler::CachedData> > >, std::__1::equal_to<std::__1::basic_string<char, std::__1::char_traits<char>, std::__1::allocator<char> > >, true>, std::__1::allocator<std::__1::__hash_value_type<std::__1::basic_string<char, std::__1::char_traits<char>, std::__1::allocator<char> >, std::__1::unique_ptr<v8::ScriptCompiler::CachedData, std::__1::default_delete<v8::ScriptCompiler::CachedData> > > > >::__construct_node<char const*&, std::__1::unique_ptr<v8::ScriptCompiler::CachedData, std::__1::default_delete<v8::ScriptCompiler::CachedData> > >(char const*&, std::__1::unique_ptr<v8::ScriptCompiler::CachedData, std::__1::default_delete<v8::ScriptCompiler::CachedData> >&&)
      1    2.9%      LazyCompile: ~IncomingMessage node:_http_incoming:51:25
      1  100.0%        LazyCompile: ~parserOnHeadersComplete node:_http_common:77:33
      1    2.9%      LazyCompile: ~<anonymous> node:path:1082:10
      1  100.0%        LazyCompile: ~resolve node:path:1091:10
      1  100.0%          LazyCompile: ~patchProcessObject node:internal/bootstrap/pre_execution:89:28
      1  100.0%            LazyCompile: ~prepareMainThreadExecution node:internal/bootstrap/pre_execution:28:36
      1    2.9%      Function: ~<anonymous> node:internal/modules/cjs/helpers:1:1
      1  100.0%        LazyCompile: ~compileForInternalLoader node:internal/bootstrap/loaders:299:27
      1  100.0%          LazyCompile: ~nativeModuleRequire node:internal/bootstrap/loaders:332:29
      1  100.0%            Function: ~<anonymous> node:internal/source_map/source_map_cache:1:1
      1    2.9%      Function: ~<anonymous> node:internal/main/run_main_module:1:1
      1    2.9%      Function: ~<anonymous> node:internal/fs/rimraf:1:1
      1  100.0%        LazyCompile: ~compileForInternalLoader node:internal/bootstrap/loaders:299:27
      1  100.0%          LazyCompile: ~nativeModuleRequire node:internal/bootstrap/loaders:332:29
      1  100.0%            Function: ~<anonymous> node:internal/fs/promises:1:1

     28    1.4%  T _host_request_notification
     17   60.7%    t std::__1::unique_ptr<std::__1::__hash_node<std::__1::__hash_value_type<std::__1::basic_string<char, std::__1::char_traits<char>, std::__1::allocator<char> >, std::__1::unique_ptr<v8::ScriptCompiler::CachedData, std::__1::default_delete<v8::ScriptCompiler::CachedData> > >, void*>, std::__1::__hash_node_destructor<std::__1::allocator<std::__1::__hash_node<std::__1::__hash_value_type<std::__1::basic_string<char, std::__1::char_traits<char>, std::__1::allocator<char> >, std::__1::unique_ptr<v8::ScriptCompiler::CachedData, std::__1::default_delete<v8::ScriptCompiler::CachedData> > >, void*> > > > std::__1::__hash_table<std::__1::__hash_value_type<std::__1::basic_string<char, std::__1::char_traits<char>, std::__1::allocator<char> >, std::__1::unique_ptr<v8::ScriptCompiler::CachedData, std::__1::default_delete<v8::ScriptCompiler::CachedData> > >, std::__1::__unordered_map_hasher<std::__1::basic_string<char, std::__1::char_traits<char>, std::__1::allocator<char> >, std::__1::__hash_value_type<std::__1::basic_string<char, std::__1::char_traits<char>, std::__1::allocator<char> >, std::__1::unique_ptr<v8::ScriptCompiler::CachedData, std::__1::default_delete<v8::ScriptCompiler::CachedData> > >, std::__1::hash<std::__1::basic_string<char, std::__1::char_traits<char>, std::__1::allocator<char> > >, true>, std::__1::__unordered_map_equal<std::__1::basic_string<char, std::__1::char_traits<char>, std::__1::allocator<char> >, std::__1::__hash_value_type<std::__1::basic_string<char, std::__1::char_traits<char>, std::__1::allocator<char> >, std::__1::unique_ptr<v8::ScriptCompiler::CachedData, std::__1::default_delete<v8::ScriptCompiler::CachedData> > >, std::__1::equal_to<std::__1::basic_string<char, std::__1::char_traits<char>, std::__1::allocator<char> > >, true>, std::__1::allocator<std::__1::__hash_value_type<std::__1::basic_string<char, std::__1::char_traits<char>, std::__1::allocator<char> >, std::__1::unique_ptr<v8::ScriptCompiler::CachedData, std::__1::default_delete<v8::ScriptCompiler::CachedData> > > > >::__construct_node<char const*&, std::__1::unique_ptr<v8::ScriptCompiler::CachedData, std::__1::default_delete<v8::ScriptCompiler::CachedData> > >(char const*&, std::__1::unique_ptr<v8::ScriptCompiler::CachedData, std::__1::default_delete<v8::ScriptCompiler::CachedData> >&&)
      2   11.8%      t std::__1::unique_ptr<std::__1::__hash_node<std::__1::__hash_value_type<std::__1::basic_string<char, std::__1::char_traits<char>, std::__1::allocator<char> >, std::__1::unique_ptr<v8::ScriptCompiler::CachedData, std::__1::default_delete<v8::ScriptCompiler::CachedData> > >, void*>, std::__1::__hash_node_destructor<std::__1::allocator<std::__1::__hash_node<std::__1::__hash_value_type<std::__1::basic_string<char, std::__1::char_traits<char>, std::__1::allocator<char> >, std::__1::unique_ptr<v8::ScriptCompiler::CachedData, std::__1::default_delete<v8::ScriptCompiler::CachedData> > >, void*> > > > std::__1::__hash_table<std::__1::__hash_value_type<std::__1::basic_string<char, std::__1::char_traits<char>, std::__1::allocator<char> >, std::__1::unique_ptr<v8::ScriptCompiler::CachedData, std::__1::default_delete<v8::ScriptCompiler::CachedData> > >, std::__1::__unordered_map_hasher<std::__1::basic_string<char, std::__1::char_traits<char>, std::__1::allocator<char> >, std::__1::__hash_value_type<std::__1::basic_string<char, std::__1::char_traits<char>, std::__1::allocator<char> >, std::__1::unique_ptr<v8::ScriptCompiler::CachedData, std::__1::default_delete<v8::ScriptCompiler::CachedData> > >, std::__1::hash<std::__1::basic_string<char, std::__1::char_traits<char>, std::__1::allocator<char> > >, true>, std::__1::__unordered_map_equal<std::__1::basic_string<char, std::__1::char_traits<char>, std::__1::allocator<char> >, std::__1::__hash_value_type<std::__1::basic_string<char, std::__1::char_traits<char>, std::__1::allocator<char> >, std::__1::unique_ptr<v8::ScriptCompiler::CachedData, std::__1::default_delete<v8::ScriptCompiler::CachedData> > >, std::__1::equal_to<std::__1::basic_string<char, std::__1::char_traits<char>, std::__1::allocator<char> > >, true>, std::__1::allocator<std::__1::__hash_value_type<std::__1::basic_string<char, std::__1::char_traits<char>, std::__1::allocator<char> >, std::__1::unique_ptr<v8::ScriptCompiler::CachedData, std::__1::default_delete<v8::ScriptCompiler::CachedData> > > > >::__construct_node<char const*&, std::__1::unique_ptr<v8::ScriptCompiler::CachedData, std::__1::default_delete<v8::ScriptCompiler::CachedData> > >(char const*&, std::__1::unique_ptr<v8::ScriptCompiler::CachedData, std::__1::default_delete<v8::ScriptCompiler::CachedData> >&&)
      1   50.0%        LazyCompile: ~resolvePackageTargetString node:internal/modules/esm/resolve:507:36
      1  100.0%          LazyCompile: ~resolvePackageTarget node:internal/modules/esm/resolve:572:30
      1  100.0%            LazyCompile: ~resolvePackageTarget node:internal/modules/esm/resolve:572:30
      1   50.0%        LazyCompile: ~parseQueryStringKeys /Users/kevjo_oe/Documents/CoderHouse/programacion_backend32085/Clases/clase-32/3-ejemplo-profiling/node_modules/qs/lib/parse.js:150:46
      1  100.0%          LazyCompile: ~module.exports /Users/kevjo_oe/Documents/CoderHouse/programacion_backend32085/Clases/clase-32/3-ejemplo-profiling/node_modules/qs/lib/parse.js:239:27
      1  100.0%            LazyCompile: ~parseExtendedQueryString /Users/kevjo_oe/Documents/CoderHouse/programacion_backend32085/Clases/clase-32/3-ejemplo-profiling/node_modules/express/lib/utils.js:289:34
      2   11.8%      LazyCompile: ~prefinish node:internal/streams/writable:719:19
      2  100.0%        LazyCompile: ~finishMaybe node:internal/streams/writable:731:21
      2  100.0%          LazyCompile: ~Writable.end node:internal/streams/writable:594:34
      2  100.0%            LazyCompile: ~Socket.end node:net:630:32
      1    5.9%      LazyCompile: ~slowCases node:internal/util:165:19
      1  100.0%        Function: ^normalizeEncoding node:internal/util:160:27
      1  100.0%          Function: ^isEncoding node:buffer:530:40
      1  100.0%            Function: ^_write node:internal/streams/writable:283:16
      1    5.9%      LazyCompile: ~setupWarningHandler node:internal/bootstrap/pre_execution:142:29
      1  100.0%        LazyCompile: ~prepareMainThreadExecution node:internal/bootstrap/pre_execution:28:36
      1  100.0%          Function: ~<anonymous> node:internal/main/run_main_module:1:1
      1    5.9%      LazyCompile: ~sendStatus /Users/kevjo_oe/Documents/CoderHouse/programacion_backend32085/Clases/clase-32/3-ejemplo-profiling/node_modules/express/lib/response.js:369:37
      1  100.0%        LazyCompile: ~<anonymous> file:///Users/kevjo_oe/Documents/CoderHouse/programacion_backend32085/Clases/clase-32/3-ejemplo-profiling/server.js:30:21
      1  100.0%          LazyCompile: ~handle /Users/kevjo_oe/Documents/CoderHouse/programacion_backend32085/Clases/clase-32/3-ejemplo-profiling/node_modules/express/lib/router/layer.js:86:49
      1  100.0%            LazyCompile: ~next /Users/kevjo_oe/Documents/CoderHouse/programacion_backend32085/Clases/clase-32/3-ejemplo-profiling/node_modules/express/lib/router/route.js:116:16
      1    5.9%      LazyCompile: ~realpathSync node:fs:2425:22
      1  100.0%        LazyCompile: ~toRealPath node:internal/modules/cjs/loader:393:20
      1  100.0%          LazyCompile: ~Module._findPath node:internal/modules/cjs/loader:494:28
      1  100.0%            LazyCompile: ~resolveMainPath node:internal/modules/run_main:15:25
      1    5.9%      LazyCompile: ~query /Users/kevjo_oe/Documents/CoderHouse/programacion_backend32085/Clases/clase-32/3-ejemplo-profiling/node_modules/express/lib/middleware/query.js:25:32
      1  100.0%        LazyCompile: ~lazyrouter /Users/kevjo_oe/Documents/CoderHouse/programacion_backend32085/Clases/clase-32/3-ejemplo-profiling/node_modules/express/lib/application.js:144:37
      1  100.0%          LazyCompile: ~use /Users/kevjo_oe/Documents/CoderHouse/programacion_backend32085/Clases/clase-32/3-ejemplo-profiling/node_modules/express/lib/application.js:194:23
      1  100.0%            Script: ~<anonymous> file:///Users/kevjo_oe/Documents/CoderHouse/programacion_backend32085/Clases/clase-32/3-ejemplo-profiling/server.js:1:1
      1    5.9%      LazyCompile: ~open node:internal/fs/promises:450:20
      1  100.0%        LazyCompile: ~readFile node:internal/fs/promises:788:24
      1  100.0%          LazyCompile: ~defaultGetSource node:internal/modules/esm/get_source:30:32
      1  100.0%            LazyCompile: ~defaultLoad node:internal/modules/esm/load:13:27
      1    5.9%      LazyCompile: ~maybeOverridePrepareStackTrace node:internal/errors:136:40
      1  100.0%        LazyCompile: ~prepareStackTrace node:internal/errors:91:27
      1  100.0%          t std::__1::unique_ptr<std::__1::__hash_node<std::__1::__hash_value_type<std::__1::basic_string<char, std::__1::char_traits<char>, std::__1::allocator<char> >, std::__1::unique_ptr<v8::ScriptCompiler::CachedData, std::__1::default_delete<v8::ScriptCompiler::CachedData> > >, void*>, std::__1::__hash_node_destructor<std::__1::allocator<std::__1::__hash_node<std::__1::__hash_value_type<std::__1::basic_string<char, std::__1::char_traits<char>, std::__1::allocator<char> >, std::__1::unique_ptr<v8::ScriptCompiler::CachedData, std::__1::default_delete<v8::ScriptCompiler::CachedData> > >, void*> > > > std::__1::__hash_table<std::__1::__hash_value_type<std::__1::basic_string<char, std::__1::char_traits<char>, std::__1::allocator<char> >, std::__1::unique_ptr<v8::ScriptCompiler::CachedData, std::__1::default_delete<v8::ScriptCompiler::CachedData> > >, std::__1::__unordered_map_hasher<std::__1::basic_string<char, std::__1::char_traits<char>, std::__1::allocator<char> >, std::__1::__hash_value_type<std::__1::basic_string<char, std::__1::char_traits<char>, std::__1::allocator<char> >, std::__1::unique_ptr<v8::ScriptCompiler::CachedData, std::__1::default_delete<v8::ScriptCompiler::CachedData> > >, std::__1::hash<std::__1::basic_string<char, std::__1::char_traits<char>, std::__1::allocator<char> > >, true>, std::__1::__unordered_map_equal<std::__1::basic_string<char, std::__1::char_traits<char>, std::__1::allocator<char> >, std::__1::__hash_value_type<std::__1::basic_string<char, std::__1::char_traits<char>, std::__1::allocator<char> >, std::__1::unique_ptr<v8::ScriptCompiler::CachedData, std::__1::default_delete<v8::ScriptCompiler::CachedData> > >, std::__1::equal_to<std::__1::basic_string<char, std::__1::char_traits<char>, std::__1::allocator<char> > >, true>, std::__1::allocator<std::__1::__hash_value_type<std::__1::basic_string<char, std::__1::char_traits<char>, std::__1::allocator<char> >, std::__1::unique_ptr<v8::ScriptCompiler::CachedData, std::__1::default_delete<v8::ScriptCompiler::CachedData> > > > >::__construct_node<char const*&, std::__1::unique_ptr<v8::ScriptCompiler::CachedData, std::__1::default_delete<v8::ScriptCompiler::CachedData> > >(char const*&, std::__1::unique_ptr<v8::ScriptCompiler::CachedData, std::__1::default_delete<v8::ScriptCompiler::CachedData> >&&)
      1  100.0%            LazyCompile: ~getStack /Users/kevjo_oe/Documents/CoderHouse/programacion_backend32085/Clases/clase-32/3-ejemplo-profiling/node_modules/depd/index.js:381:19
      1    5.9%      LazyCompile: ~hasHooks node:internal/async_hooks:471:18
      1  100.0%        LazyCompile: ~emitAfterScript node:internal/async_hooks:518:25
      1  100.0%          LazyCompile: ~processTicksAndRejections node:internal/process/task_queues:68:35
      1    5.9%      LazyCompile: ~format /Users/kevjo_oe/Documents/CoderHouse/programacion_backend32085/Clases/clase-32/3-ejemplo-profiling/node_modules/content-type/index.js:65:17
      1  100.0%        Function: ^setCharset /Users/kevjo_oe/Documents/CoderHouse/programacion_backend32085/Clases/clase-32/3-ejemplo-profiling/node_modules/express/lib/utils.js:248:41
      1  100.0%          LazyCompile: ~send /Users/kevjo_oe/Documents/CoderHouse/programacion_backend32085/Clases/clase-32/3-ejemplo-profiling/node_modules/express/lib/response.js:111:25
      1  100.0%            LazyCompile: ~sendStatus /Users/kevjo_oe/Documents/CoderHouse/programacion_backend32085/Clases/clase-32/3-ejemplo-profiling/node_modules/express/lib/response.js:369:37
      1    5.9%      LazyCompile: ~decode /Users/kevjo_oe/Documents/CoderHouse/programacion_backend32085/Clases/clase-32/3-ejemplo-profiling/node_modules/qs/lib/utils.js:111:23
      1  100.0%        LazyCompile: ~<anonymous> /Users/kevjo_oe/Documents/CoderHouse/programacion_backend32085/Clases/clase-32/3-ejemplo-profiling/node_modules/qs/lib/parse.js:91:26
      1  100.0%          LazyCompile: ~maybeMap /Users/kevjo_oe/Documents/CoderHouse/programacion_backend32085/Clases/clase-32/3-ejemplo-profiling/node_modules/qs/lib/utils.js:230:33
      1  100.0%            LazyCompile: ~parseQueryStringValues /Users/kevjo_oe/Documents/CoderHouse/programacion_backend32085/Clases/clase-32/3-ejemplo-profiling/node_modules/qs/lib/parse.js:51:50
      1    5.9%      LazyCompile: ~callFinal node:internal/streams/writable:662:19
      1  100.0%        LazyCompile: ~prefinish node:internal/streams/writable:719:19
      1  100.0%          LazyCompile: ~finishMaybe node:internal/streams/writable:731:21
      1  100.0%            LazyCompile: ~Writable.end node:internal/streams/writable:594:34
      1    5.9%      LazyCompile: ~<anonymous> /Users/kevjo_oe/Documents/CoderHouse/programacion_backend32085/Clases/clase-32/3-ejemplo-profiling/node_modules/express/lib/express.js:109:37
      1  100.0%        t std::__1::unique_ptr<std::__1::__hash_node<std::__1::__hash_value_type<std::__1::basic_string<char, std::__1::char_traits<char>, std::__1::allocator<char> >, std::__1::unique_ptr<v8::ScriptCompiler::CachedData, std::__1::default_delete<v8::ScriptCompiler::CachedData> > >, void*>, std::__1::__hash_node_destructor<std::__1::allocator<std::__1::__hash_node<std::__1::__hash_value_type<std::__1::basic_string<char, std::__1::char_traits<char>, std::__1::allocator<char> >, std::__1::unique_ptr<v8::ScriptCompiler::CachedData, std::__1::default_delete<v8::ScriptCompiler::CachedData> > >, void*> > > > std::__1::__hash_table<std::__1::__hash_value_type<std::__1::basic_string<char, std::__1::char_traits<char>, std::__1::allocator<char> >, std::__1::unique_ptr<v8::ScriptCompiler::CachedData, std::__1::default_delete<v8::ScriptCompiler::CachedData> > >, std::__1::__unordered_map_hasher<std::__1::basic_string<char, std::__1::char_traits<char>, std::__1::allocator<char> >, std::__1::__hash_value_type<std::__1::basic_string<char, std::__1::char_traits<char>, std::__1::allocator<char> >, std::__1::unique_ptr<v8::ScriptCompiler::CachedData, std::__1::default_delete<v8::ScriptCompiler::CachedData> > >, std::__1::hash<std::__1::basic_string<char, std::__1::char_traits<char>, std::__1::allocator<char> > >, true>, std::__1::__unordered_map_equal<std::__1::basic_string<char, std::__1::char_traits<char>, std::__1::allocator<char> >, std::__1::__hash_value_type<std::__1::basic_string<char, std::__1::char_traits<char>, std::__1::allocator<char> >, std::__1::unique_ptr<v8::ScriptCompiler::CachedData, std::__1::default_delete<v8::ScriptCompiler::CachedData> > >, std::__1::equal_to<std::__1::basic_string<char, std::__1::char_traits<char>, std::__1::allocator<char> > >, true>, std::__1::allocator<std::__1::__hash_value_type<std::__1::basic_string<char, std::__1::char_traits<char>, std::__1::allocator<char> >, std::__1::unique_ptr<v8::ScriptCompiler::CachedData, std::__1::default_delete<v8::ScriptCompiler::CachedData> > > > >::__construct_node<char const*&, std::__1::unique_ptr<v8::ScriptCompiler::CachedData, std::__1::default_delete<v8::ScriptCompiler::CachedData> > >(char const*&, std::__1::unique_ptr<v8::ScriptCompiler::CachedData, std::__1::default_delete<v8::ScriptCompiler::CachedData> >&&)
      1  100.0%          Function: ~<anonymous> /Users/kevjo_oe/Documents/CoderHouse/programacion_backend32085/Clases/clase-32/3-ejemplo-profiling/node_modules/express/lib/express.js:1:1
      1  100.0%            LazyCompile: ~Module._compile node:internal/modules/cjs/loader:1059:37
      1    5.9%      Function: ~<anonymous> node:internal/fs/promises:1:1
      1  100.0%        LazyCompile: ~compileForInternalLoader node:internal/bootstrap/loaders:299:27
      1  100.0%          LazyCompile: ~nativeModuleRequire node:internal/bootstrap/loaders:332:29
      1  100.0%            Function: ~<anonymous> node:internal/modules/esm/get_source:1:1

     24    1.2%  T _mig_strncpy_zerofill

     24    1.2%  /usr/lib/system/libsystem_c.dylib
     21   87.5%    t std::__1::unique_ptr<std::__1::__hash_node<std::__1::__hash_value_type<std::__1::basic_string<char, std::__1::char_traits<char>, std::__1::allocator<char> >, std::__1::unique_ptr<v8::ScriptCompiler::CachedData, std::__1::default_delete<v8::ScriptCompiler::CachedData> > >, void*>, std::__1::__hash_node_destructor<std::__1::allocator<std::__1::__hash_node<std::__1::__hash_value_type<std::__1::basic_string<char, std::__1::char_traits<char>, std::__1::allocator<char> >, std::__1::unique_ptr<v8::ScriptCompiler::CachedData, std::__1::default_delete<v8::ScriptCompiler::CachedData> > >, void*> > > > std::__1::__hash_table<std::__1::__hash_value_type<std::__1::basic_string<char, std::__1::char_traits<char>, std::__1::allocator<char> >, std::__1::unique_ptr<v8::ScriptCompiler::CachedData, std::__1::default_delete<v8::ScriptCompiler::CachedData> > >, std::__1::__unordered_map_hasher<std::__1::basic_string<char, std::__1::char_traits<char>, std::__1::allocator<char> >, std::__1::__hash_value_type<std::__1::basic_string<char, std::__1::char_traits<char>, std::__1::allocator<char> >, std::__1::unique_ptr<v8::ScriptCompiler::CachedData, std::__1::default_delete<v8::ScriptCompiler::CachedData> > >, std::__1::hash<std::__1::basic_string<char, std::__1::char_traits<char>, std::__1::allocator<char> > >, true>, std::__1::__unordered_map_equal<std::__1::basic_string<char, std::__1::char_traits<char>, std::__1::allocator<char> >, std::__1::__hash_value_type<std::__1::basic_string<char, std::__1::char_traits<char>, std::__1::allocator<char> >, std::__1::unique_ptr<v8::ScriptCompiler::CachedData, std::__1::default_delete<v8::ScriptCompiler::CachedData> > >, std::__1::equal_to<std::__1::basic_string<char, std::__1::char_traits<char>, std::__1::allocator<char> > >, true>, std::__1::allocator<std::__1::__hash_value_type<std::__1::basic_string<char, std::__1::char_traits<char>, std::__1::allocator<char> >, std::__1::unique_ptr<v8::ScriptCompiler::CachedData, std::__1::default_delete<v8::ScriptCompiler::CachedData> > > > >::__construct_node<char const*&, std::__1::unique_ptr<v8::ScriptCompiler::CachedData, std::__1::default_delete<v8::ScriptCompiler::CachedData> > >(char const*&, std::__1::unique_ptr<v8::ScriptCompiler::CachedData, std::__1::default_delete<v8::ScriptCompiler::CachedData> >&&)
      3   14.3%      LazyCompile: ~realpathSync node:fs:2425:22
      3  100.0%        LazyCompile: ~toRealPath node:internal/modules/cjs/loader:393:20
      3  100.0%          LazyCompile: ~Module._findPath node:internal/modules/cjs/loader:494:28
      3  100.0%            LazyCompile: ~resolveMainPath node:internal/modules/run_main:15:25
      2    9.5%      LazyCompile: ~value node:internal/console/constructor:321:20
      2  100.0%        LazyCompile: ~log node:internal/console/constructor:359:6
      2  100.0%          t std::__1::unique_ptr<std::__1::__hash_node<std::__1::__hash_value_type<std::__1::basic_string<char, std::__1::char_traits<char>, std::__1::allocator<char> >, std::__1::unique_ptr<v8::ScriptCompiler::CachedData, std::__1::default_delete<v8::ScriptCompiler::CachedData> > >, void*>, std::__1::__hash_node_destructor<std::__1::allocator<std::__1::__hash_node<std::__1::__hash_value_type<std::__1::basic_string<char, std::__1::char_traits<char>, std::__1::allocator<char> >, std::__1::unique_ptr<v8::ScriptCompiler::CachedData, std::__1::default_delete<v8::ScriptCompiler::CachedData> > >, void*> > > > std::__1::__hash_table<std::__1::__hash_value_type<std::__1::basic_string<char, std::__1::char_traits<char>, std::__1::allocator<char> >, std::__1::unique_ptr<v8::ScriptCompiler::CachedData, std::__1::default_delete<v8::ScriptCompiler::CachedData> > >, std::__1::__unordered_map_hasher<std::__1::basic_string<char, std::__1::char_traits<char>, std::__1::allocator<char> >, std::__1::__hash_value_type<std::__1::basic_string<char, std::__1::char_traits<char>, std::__1::allocator<char> >, std::__1::unique_ptr<v8::ScriptCompiler::CachedData, std::__1::default_delete<v8::ScriptCompiler::CachedData> > >, std::__1::hash<std::__1::basic_string<char, std::__1::char_traits<char>, std::__1::allocator<char> > >, true>, std::__1::__unordered_map_equal<std::__1::basic_string<char, std::__1::char_traits<char>, std::__1::allocator<char> >, std::__1::__hash_value_type<std::__1::basic_string<char, std::__1::char_traits<char>, std::__1::allocator<char> >, std::__1::unique_ptr<v8::ScriptCompiler::CachedData, std::__1::default_delete<v8::ScriptCompiler::CachedData> > >, std::__1::equal_to<std::__1::basic_string<char, std::__1::char_traits<char>, std::__1::allocator<char> > >, true>, std::__1::allocator<std::__1::__hash_value_type<std::__1::basic_string<char, std::__1::char_traits<char>, std::__1::allocator<char> >, std::__1::unique_ptr<v8::ScriptCompiler::CachedData, std::__1::default_delete<v8::ScriptCompiler::CachedData> > > > >::__construct_node<char const*&, std::__1::unique_ptr<v8::ScriptCompiler::CachedData, std::__1::default_delete<v8::ScriptCompiler::CachedData> > >(char const*&, std::__1::unique_ptr<v8::ScriptCompiler::CachedData, std::__1::default_delete<v8::ScriptCompiler::CachedData> >&&)
      2  100.0%            LazyCompile: ~<anonymous> file:///Users/kevjo_oe/Documents/CoderHouse/programacion_backend32085/Clases/clase-32/3-ejemplo-profiling/server.js:93:33
      2    9.5%      Function: ~<anonymous> node:internal/fs/rimraf:1:1
      2  100.0%        LazyCompile: ~compileForInternalLoader node:internal/bootstrap/loaders:299:27
      2  100.0%          LazyCompile: ~nativeModuleRequire node:internal/bootstrap/loaders:332:29
      2  100.0%            Function: ~<anonymous> node:internal/fs/promises:1:1
      1    4.8%      LazyCompile: ~wrapSafe node:internal/modules/cjs/loader:1017:18
      1  100.0%        LazyCompile: ~Module._compile node:internal/modules/cjs/loader:1059:37
      1  100.0%          LazyCompile: ~Module._extensions..js node:internal/modules/cjs/loader:1114:37
      1  100.0%            LazyCompile: ~Module.load node:internal/modules/cjs/loader:969:33
      1    4.8%      LazyCompile: ~toRealPath node:internal/modules/cjs/loader:393:20
      1  100.0%        LazyCompile: ~Module._findPath node:internal/modules/cjs/loader:494:28
      1  100.0%          LazyCompile: ~resolveMainPath node:internal/modules/run_main:15:25
      1  100.0%            LazyCompile: ~executeUserEntryPoint node:internal/modules/run_main:70:31
      1    4.8%      LazyCompile: ~prepareMainThreadExecution node:internal/bootstrap/pre_execution:28:36
      1  100.0%        Function: ~<anonymous> node:internal/main/run_main_module:1:1
      1    4.8%      LazyCompile: ~onParseError node:internal/url:552:22
      1  100.0%        t std::__1::unique_ptr<std::__1::__hash_node<std::__1::__hash_value_type<std::__1::basic_string<char, std::__1::char_traits<char>, std::__1::allocator<char> >, std::__1::unique_ptr<v8::ScriptCompiler::CachedData, std::__1::default_delete<v8::ScriptCompiler::CachedData> > >, void*>, std::__1::__hash_node_destructor<std::__1::allocator<std::__1::__hash_node<std::__1::__hash_value_type<std::__1::basic_string<char, std::__1::char_traits<char>, std::__1::allocator<char> >, std::__1::unique_ptr<v8::ScriptCompiler::CachedData, std::__1::default_delete<v8::ScriptCompiler::CachedData> > >, void*> > > > std::__1::__hash_table<std::__1::__hash_value_type<std::__1::basic_string<char, std::__1::char_traits<char>, std::__1::allocator<char> >, std::__1::unique_ptr<v8::ScriptCompiler::CachedData, std::__1::default_delete<v8::ScriptCompiler::CachedData> > >, std::__1::__unordered_map_hasher<std::__1::basic_string<char, std::__1::char_traits<char>, std::__1::allocator<char> >, std::__1::__hash_value_type<std::__1::basic_string<char, std::__1::char_traits<char>, std::__1::allocator<char> >, std::__1::unique_ptr<v8::ScriptCompiler::CachedData, std::__1::default_delete<v8::ScriptCompiler::CachedData> > >, std::__1::hash<std::__1::basic_string<char, std::__1::char_traits<char>, std::__1::allocator<char> > >, true>, std::__1::__unordered_map_equal<std::__1::basic_string<char, std::__1::char_traits<char>, std::__1::allocator<char> >, std::__1::__hash_value_type<std::__1::basic_string<char, std::__1::char_traits<char>, std::__1::allocator<char> >, std::__1::unique_ptr<v8::ScriptCompiler::CachedData, std::__1::default_delete<v8::ScriptCompiler::CachedData> > >, std::__1::equal_to<std::__1::basic_string<char, std::__1::char_traits<char>, std::__1::allocator<char> > >, true>, std::__1::allocator<std::__1::__hash_value_type<std::__1::basic_string<char, std::__1::char_traits<char>, std::__1::allocator<char> >, std::__1::unique_ptr<v8::ScriptCompiler::CachedData, std::__1::default_delete<v8::ScriptCompiler::CachedData> > > > >::__construct_node<char const*&, std::__1::unique_ptr<v8::ScriptCompiler::CachedData, std::__1::default_delete<v8::ScriptCompiler::CachedData> > >(char const*&, std::__1::unique_ptr<v8::ScriptCompiler::CachedData, std::__1::default_delete<v8::ScriptCompiler::CachedData> >&&)
      1  100.0%          Function: ^URL node:internal/url:621:14
      1  100.0%            LazyCompile: ~defaultResolve node:internal/modules/esm/resolve:1128:30
      1    4.8%      LazyCompile: ~log node:internal/console/constructor:359:6
      1  100.0%        t std::__1::unique_ptr<std::__1::__hash_node<std::__1::__hash_value_type<std::__1::basic_string<char, std::__1::char_traits<char>, std::__1::allocator<char> >, std::__1::unique_ptr<v8::ScriptCompiler::CachedData, std::__1::default_delete<v8::ScriptCompiler::CachedData> > >, void*>, std::__1::__hash_node_destructor<std::__1::allocator<std::__1::__hash_node<std::__1::__hash_value_type<std::__1::basic_string<char, std::__1::char_traits<char>, std::__1::allocator<char> >, std::__1::unique_ptr<v8::ScriptCompiler::CachedData, std::__1::default_delete<v8::ScriptCompiler::CachedData> > >, void*> > > > std::__1::__hash_table<std::__1::__hash_value_type<std::__1::basic_string<char, std::__1::char_traits<char>, std::__1::allocator<char> >, std::__1::unique_ptr<v8::ScriptCompiler::CachedData, std::__1::default_delete<v8::ScriptCompiler::CachedData> > >, std::__1::__unordered_map_hasher<std::__1::basic_string<char, std::__1::char_traits<char>, std::__1::allocator<char> >, std::__1::__hash_value_type<std::__1::basic_string<char, std::__1::char_traits<char>, std::__1::allocator<char> >, std::__1::unique_ptr<v8::ScriptCompiler::CachedData, std::__1::default_delete<v8::ScriptCompiler::CachedData> > >, std::__1::hash<std::__1::basic_string<char, std::__1::char_traits<char>, std::__1::allocator<char> > >, true>, std::__1::__unordered_map_equal<std::__1::basic_string<char, std::__1::char_traits<char>, std::__1::allocator<char> >, std::__1::__hash_value_type<std::__1::basic_string<char, std::__1::char_traits<char>, std::__1::allocator<char> >, std::__1::unique_ptr<v8::ScriptCompiler::CachedData, std::__1::default_delete<v8::ScriptCompiler::CachedData> > >, std::__1::equal_to<std::__1::basic_string<char, std::__1::char_traits<char>, std::__1::allocator<char> > >, true>, std::__1::allocator<std::__1::__hash_value_type<std::__1::basic_string<char, std::__1::char_traits<char>, std::__1::allocator<char> >, std::__1::unique_ptr<v8::ScriptCompiler::CachedData, std::__1::default_delete<v8::ScriptCompiler::CachedData> > > > >::__construct_node<char const*&, std::__1::unique_ptr<v8::ScriptCompiler::CachedData, std::__1::default_delete<v8::ScriptCompiler::CachedData> > >(char const*&, std::__1::unique_ptr<v8::ScriptCompiler::CachedData, std::__1::default_delete<v8::ScriptCompiler::CachedData> >&&)
      1  100.0%          LazyCompile: ~<anonymous> file:///Users/kevjo_oe/Documents/CoderHouse/programacion_backend32085/Clases/clase-32/3-ejemplo-profiling/server.js:93:33
      1  100.0%            LazyCompile: ~onceWrapper node:events:636:21
      1    4.8%      LazyCompile: ~listenInCluster node:net:1410:25
      1  100.0%        LazyCompile: ~Server.listen node:net:1453:35
      1  100.0%          LazyCompile: ~listen /Users/kevjo_oe/Documents/CoderHouse/programacion_backend32085/Clases/clase-32/3-ejemplo-profiling/node_modules/express/lib/application.js:633:29
      1  100.0%            Script: ~<anonymous> file:///Users/kevjo_oe/Documents/CoderHouse/programacion_backend32085/Clases/clase-32/3-ejemplo-profiling/server.js:1:1
      1    4.8%      LazyCompile: ~initializeCJSLoader node:internal/bootstrap/pre_execution:477:29
      1  100.0%        LazyCompile: ~prepareMainThreadExecution node:internal/bootstrap/pre_execution:28:36
      1  100.0%          Function: ~<anonymous> node:internal/main/run_main_module:1:1
      1    4.8%      LazyCompile: ~highWaterMarkFrom node:internal/streams/state:10:27
      1  100.0%        LazyCompile: ~getHighWaterMark node:internal/streams/state:19:26
      1  100.0%          LazyCompile: ~ReadableState node:internal/streams/readable:78:23
      1  100.0%            LazyCompile: ~Readable node:internal/streams/readable:181:18
      1    4.8%      LazyCompile: ~fileURLToPath node:internal/url:1416:23
      1  100.0%        LazyCompile: ~finalizeResolution node:internal/modules/esm/resolve:397:28
      1  100.0%          LazyCompile: ~moduleResolve node:internal/modules/esm/resolve:988:23
      1  100.0%            LazyCompile: ~defaultResolve node:internal/modules/esm/resolve:1128:30
      1    4.8%      LazyCompile: ~fastparse /Users/kevjo_oe/Documents/CoderHouse/programacion_backend32085/Clases/clase-32/3-ejemplo-profiling/node_modules/parseurl/index.js:95:20
      1  100.0%        LazyCompile: ~parseurl /Users/kevjo_oe/Documents/CoderHouse/programacion_backend32085/Clases/clase-32/3-ejemplo-profiling/node_modules/parseurl/index.js:35:19
      1  100.0%          LazyCompile: ~getPathname /Users/kevjo_oe/Documents/CoderHouse/programacion_backend32085/Clases/clase-32/3-ejemplo-profiling/node_modules/express/lib/router/index.js:537:21
      1  100.0%            LazyCompile: ~next /Users/kevjo_oe/Documents/CoderHouse/programacion_backend32085/Clases/clase-32/3-ejemplo-profiling/node_modules/express/lib/router/index.js:177:16
      1    4.8%      LazyCompile: ~createWritableStdioStream node:internal/bootstrap/switches/is_main_thread:41:35
      1  100.0%        LazyCompile: ~getStderr node:internal/bootstrap/switches/is_main_thread:137:19
      1  100.0%          Function: ~<anonymous> /Users/kevjo_oe/Documents/CoderHouse/programacion_backend32085/Clases/clase-32/3-ejemplo-profiling/node_modules/debug/src/node.js:1:1
      1  100.0%            LazyCompile: ~Module._compile node:internal/modules/cjs/loader:1059:37
      1    4.8%      LazyCompile: ~app.<computed> /Users/kevjo_oe/Documents/CoderHouse/programacion_backend32085/Clases/clase-32/3-ejemplo-profiling/node_modules/express/lib/application.js:490:25
      1  100.0%        LazyCompile: ~handle /Users/kevjo_oe/Documents/CoderHouse/programacion_backend32085/Clases/clase-32/3-ejemplo-profiling/node_modules/express/lib/application.js:165:29
      1  100.0%          LazyCompile: ~app /Users/kevjo_oe/Documents/CoderHouse/programacion_backend32085/Clases/clase-32/3-ejemplo-profiling/node_modules/express/lib/express.js:38:21
      1  100.0%            Function: ^emit node:events:475:44
      1    4.8%      LazyCompile: ~Timeout.refresh node:internal/timers:210:37
      1  100.0%        Function: ^_unrefTimer node:net:431:52
      1  100.0%          LazyCompile: ~Socket._writeGeneric node:net:791:42
      1  100.0%            LazyCompile: ~Socket._writev node:net:823:36
      1    4.8%      Function: ~<anonymous> node:internal/fs/promises:1:1
      1  100.0%        LazyCompile: ~compileForInternalLoader node:internal/bootstrap/loaders:299:27
      1  100.0%          LazyCompile: ~nativeModuleRequire node:internal/bootstrap/loaders:332:29
      1  100.0%            Function: ~<anonymous> node:internal/modules/esm/get_source:1:1

