[
	{
		"id": 2,
		"venue": "Khalifa International Stadium",
		"location": "Ar-Rayyan",
		"status": "completed",
		"attendance": "45334",
		"stage_name": "First stage",
		"home_team_country": "ENG",
		"away_team_country": "IRN",
		"datetime": "2022-11-21T13:00:00Z",
		"winner": "England",
		"winner_code": "ENG",
		"home_team": {
			"country": "ENG",
			"name": "England",
			"goals": 6,
			"penalties": 0
		},
		"away_team": {
			"country": "IRN",
			"name": "Iran",
			"goals": 2,
			"penalties": 0
		},
		"last_checked_at": "2022-12-19T23:48:02Z",
		"last_changed_at": "2022-12-19T23:48:02Z"
	},
	{
		"id": 56,
		"venue": "Lusail Stadium",
		"location": "Al Daayen",
		"status": "completed",
		"attendance": "83720",
		"stage_name": "Round of 16",
		"home_team_country": "POR",
		"away_team_country": "SUI",
		"datetime": "2022-12-06T19:00:00Z",
		"winner": "Portugal",
		"winner_code": "POR",
		"home_team": {
			"country": "POR",
			"name": "Portugal",
			"goals": 6,
			"penalties": 0
		},
		"away_team": {
			"country": "SUI",
			"name": "Switzerland",
			"goals": 1,
			"penalties": 0
		},
		"last_checked_at": "2022-12-19T23:48:01Z",
		"last_changed_at": "2022-12-19T23:48:01Z"
	},
	{
		"id": 11,
		"venue": "Al Thumama Stadium",
		"location": "Doha",
		"status": "completed",
		"attendance": "40013",
		"stage_name": "First stage",
		"home_team_country": "ESP",
		"away_team_country": "CRC",
		"datetime": "2022-11-23T16:00:00Z",
		"winner": "Spain",
		"winner_code": "ESP",
		"home_team": {
			"country": "ESP",
			"name": "Spain",
			"goals": 7,
			"penalties": 0
		},
		"away_team": {
			"country": "CRC",
			"name": "Costa Rica",
			"goals": 0,
			"penalties": 0
		},
		"last_checked_at": "2022-12-19T23:48:02Z",
		"last_changed_at": "2022-12-19T23:48:02Z"
	},
	{
		"id": 44,
		"venue": "Al Bayt Stadium",
		"location": "Al Khor",
		"status": "completed",
		"attendance": "67054",
		"stage_name": "First stage",
		"home_team_country": "CRC",
		"away_team_country": "GER",
		"datetime": "2022-12-01T19:00:00Z",
		"winner": "Germany",
		"winner_code": "GER",
		"home_team": {
			"country": "CRC",
			"name": "Costa Rica",
			"goals": 2,
			"penalties": 0
		},
		"away_team": {
			"country": "GER",
			"name": "Germany",
			"goals": 4,
			"penalties": 0
		},
		"last_checked_at": "2022-12-19T23:48:00Z",
		"last_changed_at": "2022-12-19T23:48:00Z"
	},
	{
		"id": 29,
		"venue": "Al Janoub Stadium",
		"location": "Al Wakrah",
		"status": "completed",
		"attendance": "39789",
		"stage_name": "First stage",
		"home_team_country": "CMR",
		"away_team_country": "SRB",
		"datetime": "2022-11-28T10:00:00Z",
		"winner": "Draw",
		"winner_code": "Draw",
		"home_team": {
			"country": "CMR",
			"name": "Cameroon",
			"goals": 3,
			"penalties": 0
		},
		"away_team": {
			"country": "SRB",
			"name": "Serbia",
			"goals": 3,
			"penalties": 0
		},
		"last_checked_at": "2022-12-20T00:04:15Z",
		"last_changed_at": "2022-12-20T00:04:15Z"
	},
	{
		"id": 64,
		"venue": "Lusail Stadium",
		"location": "Al Daayen",
		"status": "completed",
		"attendance": "88966",
		"stage_name": "Final",
		"home_team_country": "ARG",
		"away_team_country": "FRA",
		"datetime": "2022-12-18T15:00:00Z",
		"winner": "Argentina",
		"winner_code": "ARG",
		"home_team": {
			"country": "ARG",
			"name": "Argentina",
			"goals": 3,
			"penalties": 4
		},
		"away_team": {
			"country": "FRA",
			"name": "France",
			"goals": 3,
			"penalties": 2
		},
		"last_checked_at": "2022-12-19T23:01:00Z",
		"last_changed_at": "2022-12-19T23:01:00Z"
	},
	{
		"id": 30,
		"venue": "Education City Stadium",
		"location": "Doha",
		"status": "completed",
		"attendance": "43983",
		"stage_name": "First stage",
		"home_team_country": "KOR",
		"away_team_country": "GHA",
		"datetime": "2022-11-28T13:00:00Z",
		"winner": "Ghana",
		"winner_code": "GHA",
		"home_team": {
			"country": "KOR",
			"name": "Korea Republic",
			"goals": 2,
			"penalties": 0
		},
		"away_team": {
			"country": "GHA",
			"name": "Ghana",
			"goals": 3,
			"penalties": 0
		},
		"last_checked_at": "2022-12-19T23:48:01Z",
		"last_changed_at": "2022-12-19T23:48:01Z"
	},
	{
		"id": 54,
		"venue": "Stadium 974",
		"location": "Doha",
		"status": "completed",
		"attendance": "43847",
		"stage_name": "Round of 16",
		"home_team_country": "BRA",
		"away_team_country": "KOR",
		"datetime": "2022-12-05T19:00:00Z",
		"winner": "Brazil",
		"winner_code": "BRA",
		"home_team": {
			"country": "BRA",
			"name": "Brazil",
			"goals": 4,
			"penalties": 0
		},
		"away_team": {
			"country": "KOR",
			"name": "Korea Republic",
			"goals": 1,
			"penalties": 0
		},
		"last_checked_at": "2022-12-19T23:48:02Z",
		"last_changed_at": "2022-12-19T23:48:02Z"
	},
	{
		"id": 27,
		"venue": "Khalifa International Stadium",
		"location": "Ar-Rayyan",
		"status": "completed",
		"attendance": "44374",
		"stage_name": "First stage",
		"home_team_country": "CRO",
		"away_team_country": "CAN",
		"datetime": "2022-11-27T16:00:00Z",
		"winner": "Croatia",
		"winner_code": "CRO",
		"home_team": {
			"country": "CRO",
			"name": "Croatia",
			"goals": 4,
			"penalties": 0
		},
		"away_team": {
			"country": "CAN",
			"name": "Canada",
			"goals": 1,
			"penalties": 0
		},
		"last_checked_at": "2022-12-19T23:48:02Z",
		"last_changed_at": "2022-12-19T23:48:02Z"
	},
	{
		"id": 47,
		"venue": "Stadium 974",
		"location": "Doha",
		"status": "completed",
		"attendance": "41378",
		"stage_name": "First stage",
		"home_team_country": "SRB",
		"away_team_country": "SUI",
		"datetime": "2022-12-02T19:00:00Z",
		"winner": "Switzerland",
		"winner_code": "SUI",
		"home_team": {
			"country": "SRB",
			"name": "Serbia",
			"goals": 2,
			"penalties": 0
		},
		"away_team": {
			"country": "SUI",
			"name": "Switzerland",
			"goals": 3,
			"penalties": 0
		},
		"last_checked_at": "2022-12-19T23:48:02Z",
		"last_changed_at": "2022-12-19T23:48:02Z"
	},
	{
		"id": 8,
		"venue": "Al Janoub Stadium",
		"location": "Al Wakrah",
		"status": "completed",
		"attendance": "40875",
		"stage_name": "First stage",
		"home_team_country": "FRA",
		"away_team_country": "AUS",
		"datetime": "2022-11-22T19:00:00Z",
		"winner": "France",
		"winner_code": "FRA",
		"home_team": {
			"country": "FRA",
			"name": "France",
			"goals": 4,
			"penalties": 0
		},
		"away_team": {
			"country": "AUS",
			"name": "Australia",
			"goals": 1,
			"penalties": 0
		},
		"last_checked_at": "2022-12-19T23:48:02Z",
		"last_changed_at": "2022-12-19T23:48:02Z"
	},
	{
		"id": 15,
		"venue": "Stadium 974",
		"location": "Doha",
		"status": "completed",
		"attendance": "42662",
		"stage_name": "First stage",
		"home_team_country": "POR",
		"away_team_country": "GHA",
		"datetime": "2022-11-24T16:00:00Z",
		"winner": "Portugal",
		"winner_code": "POR",
		"home_team": {
			"country": "POR",
			"name": "Portugal",
			"goals": 3,
			"penalties": 0
		},
		"away_team": {
			"country": "GHA",
			"name": "Ghana",
			"goals": 2,
			"penalties": 0
		},
		"last_checked_at": "2022-12-19T23:48:01Z",
		"last_changed_at": "2022-12-19T23:48:02Z"
	},
	{
		"id": 51,
		"venue": "Al Thumama Stadium",
		"location": "Doha",
		"status": "completed",
		"attendance": "40989",
		"stage_name": "Round of 16",
		"home_team_country": "FRA",
		"away_team_country": "POL",
		"datetime": "2022-12-04T15:00:00Z",
		"winner": "France",
		"winner_code": "FRA",
		"home_team": {
			"country": "FRA",
			"name": "France",
			"goals": 3,
			"penalties": 0
		},
		"away_team": {
			"country": "POL",
			"name": "Poland",
			"goals": 1,
			"penalties": 0
		},
		"last_checked_at": "2022-12-19T23:48:00Z",
		"last_changed_at": "2022-12-19T23:48:00Z"
	},
	{
		"id": 58,
		"venue": "Lusail Stadium",
		"location": "Al Daayen",
		"status": "completed",
		"attendance": "88235",
		"stage_name": "Quarter-final",
		"home_team_country": "NED",
		"away_team_country": "ARG",
		"datetime": "2022-12-09T19:00:00Z",
		"winner": "Argentina",
		"winner_code": "ARG",
		"home_team": {
			"country": "NED",
			"name": "Netherlands",
			"goals": 2,
			"penalties": 3
		},
		"away_team": {
			"country": "ARG",
			"name": "Argentina",
			"goals": 2,
			"penalties": 4
		},
		"last_checked_at": "2022-12-19T23:48:02Z",
		"last_changed_at": "2022-12-19T23:48:02Z"
	},
	{
		"id": 49,
		"venue": "Khalifa International Stadium",
		"location": "Ar-Rayyan",
		"status": "completed",
		"attendance": "44846",
		"stage_name": "Round of 16",
		"home_team_country": "NED",
		"away_team_country": "USA",
		"datetime": "2022-12-03T15:00:00Z",
		"winner": "Netherlands",
		"winner_code": "NED",
		"home_team": {
			"country": "NED",
			"name": "Netherlands",
			"goals": 3,
			"penalties": 0
		},
		"away_team": {
			"country": "USA",
			"name": "United States",
			"goals": 1,
			"penalties": 0
		},
		"last_checked_at": "2022-12-19T23:48:01Z",
		"last_changed_at": "2022-12-19T23:48:01Z"
	},
	{
		"id": 18,
		"venue": "Al Thumama Stadium",
		"location": "Doha",
		"status": "completed",
		"attendance": "41797",
		"stage_name": "First stage",
		"home_team_country": "QAT",
		"away_team_country": "SEN",
		"datetime": "2022-11-25T13:00:00Z",
		"winner": "Senegal",
		"winner_code": "SEN",
		"home_team": {
			"country": "QAT",
			"name": "Qatar",
			"goals": 1,
			"penalties": 0
		},
		"away_team": {
			"country": "SEN",
			"name": "Senegal",
			"goals": 3,
			"penalties": 0
		},
		"last_checked_at": "2022-12-19T23:48:02Z",
		"last_changed_at": "2022-12-19T23:48:02Z"
	},
	{
		"id": 52,
		"venue": "Al Bayt Stadium",
		"location": "Al Khor",
		"status": "completed",
		"attendance": "65985",
		"stage_name": "Round of 16",
		"home_team_country": "ENG",
		"away_team_country": "SEN",
		"datetime": "2022-12-04T19:00:00Z",
		"winner": "England",
		"winner_code": "ENG",
		"home_team": {
			"country": "ENG",
			"name": "England",
			"goals": 3,
			"penalties": 0
		},
		"away_team": {
			"country": "SEN",
			"name": "Senegal",
			"goals": 0,
			"penalties": 0
		},
		"last_checked_at": "2022-12-19T22:57:00Z",
		"last_changed_at": "2022-12-19T22:57:00Z"
	},
	{
		"id": 42,
		"venue": "Al Thumama Stadium",
		"location": "Doha",
		"status": "completed",
		"attendance": "43102",
		"stage_name": "First stage",
		"home_team_country": "CAN",
		"away_team_country": "MAR",
		"datetime": "2022-12-01T15:00:00Z",
		"winner": "Morocco",
		"winner_code": "MAR",
		"home_team": {
			"country": "CAN",
			"name": "Canada",
			"goals": 1,
			"penalties": 0
		},
		"away_team": {
			"country": "MAR",
			"name": "Morocco",
			"goals": 2,
			"penalties": 0
		},
		"last_checked_at": "2022-12-19T23:48:00Z",
		"last_changed_at": "2022-12-19T23:48:00Z"
	},
	{
		"id": 23,
		"venue": "Stadium 974",
		"location": "Doha",
		"status": "completed",
		"attendance": "42860",
		"stage_name": "First stage",
		"home_team_country": "FRA",
		"away_team_country": "DEN",
		"datetime": "2022-11-26T16:00:00Z",
		"winner": "France",
		"winner_code": "FRA",
		"home_team": {
			"country": "FRA",
			"name": "France",
			"goals": 2,
			"penalties": 0
		},
		"away_team": {
			"country": "DEN",
			"name": "Denmark",
			"goals": 1,
			"penalties": 0
		},
		"last_checked_at": "2022-12-19T23:48:00Z",
		"last_changed_at": "2022-12-19T23:48:00Z"
	},
	{
		"id": 5,
		"venue": "Lusail Stadium",
		"location": "Al Daayen",
		"status": "completed",
		"attendance": "88012",
		"stage_name": "First stage",
		"home_team_country": "ARG",
		"away_team_country": "KSA",
		"datetime": "2022-11-22T10:00:00Z",
		"winner": "Saudi Arabia",
		"winner_code": "KSA",
		"home_team": {
			"country": "ARG",
			"name": "Argentina",
			"goals": 1,
			"penalties": 0
		},
		"away_team": {
			"country": "KSA",
			"name": "Saudi Arabia",
			"goals": 2,
			"penalties": 0
		},
		"last_checked_at": "2022-12-19T23:48:01Z",
		"last_changed_at": "2022-12-19T23:48:01Z"
	},
	{
		"id": 63,
		"venue": "Khalifa International Stadium",
		"location": "Ar-Rayyan",
		"status": "completed",
		"attendance": "44137",
		"stage_name": "Play-off for third place",
		"home_team_country": "CRO",
		"away_team_country": "MAR",
		"datetime": "2022-12-17T15:00:00Z",
		"winner": "Croatia",
		"winner_code": "CRO",
		"home_team": {
			"country": "CRO",
			"name": "Croatia",
			"goals": 2,
			"penalties": 0
		},
		"away_team": {
			"country": "MAR",
			"name": "Morocco",
			"goals": 1,
			"penalties": 0
		},
		"last_checked_at": "2022-12-20T00:01:00Z",
		"last_changed_at": "2022-12-20T00:01:00Z"
	},
	{
		"id": 34,
		"venue": "Khalifa International Stadium",
		"location": "Ar-Rayyan",
		"status": "completed",
		"attendance": "44569",
		"stage_name": "First stage",
		"home_team_country": "ECU",
		"away_team_country": "SEN",
		"datetime": "2022-11-29T15:00:00Z",
		"winner": "Senegal",
		"winner_code": "SEN",
		"home_team": {
			"country": "ECU",
			"name": "Ecuador",
			"goals": 1,
			"penalties": 0
		},
		"away_team": {
			"country": "SEN",
			"name": "Senegal",
			"goals": 2,
			"penalties": 0
		},
		"last_checked_at": "2022-12-19T23:48:01Z",
		"last_changed_at": "2022-12-19T23:48:01Z"
	},
	{
		"id": 50,
		"venue": "Ahmad Bin Ali Stadium",
		"location": "Ar-Rayyan",
		"status": "completed",
		"attendance": "45032",
		"stage_name": "Round of 16",
		"home_team_country": "ARG",
		"away_team_country": "AUS",
		"datetime": "2022-12-03T19:00:00Z",
		"winner": "Argentina",
		"winner_code": "ARG",
		"home_team": {
			"country": "ARG",
			"name": "Argentina",
			"goals": 2,
			"penalties": 0
		},
		"away_team": {
			"country": "AUS",
			"name": "Australia",
			"goals": 1,
			"penalties": 0
		},
		"last_checked_at": "2022-12-19T23:48:01Z",
		"last_changed_at": "2022-12-19T23:48:01Z"
	},
	{
		"id": 43,
		"venue": "Khalifa International Stadium",
		"location": "Ar-Rayyan",
		"status": "completed",
		"attendance": "44851",
		"stage_name": "First stage",
		"home_team_country": "JPN",
		"away_team_country": "ESP",
		"datetime": "2022-12-01T19:00:00Z",
		"winner": "Japan",
		"winner_code": "JPN",
		"home_team": {
			"country": "JPN",
			"name": "Japan",
			"goals": 2,
			"penalties": 0
		},
		"away_team": {
			"country": "ESP",
			"name": "Spain",
			"goals": 1,
			"penalties": 0
		},
		"last_checked_at": "2022-12-19T23:48:01Z",
		"last_changed_at": "2022-12-19T23:48:01Z"
	},
	{
		"id": 35,
		"venue": "Ahmad Bin Ali Stadium",
		"location": "Ar-Rayyan",
		"status": "completed",
		"attendance": "44297",
		"stage_name": "First stage",
		"home_team_country": "WAL",
		"away_team_country": "ENG",
		"datetime": "2022-11-29T19:00:00Z",
		"winner": "England",
		"winner_code": "ENG",
		"home_team": {
			"country": "WAL",
			"name": "Wales",
			"goals": 0,
			"penalties": 0
		},
		"away_team": {
			"country": "ENG",
			"name": "England",
			"goals": 3,
			"penalties": 0
		},
		"last_checked_at": "2022-12-19T23:48:01Z",
		"last_changed_at": "2022-12-19T23:48:01Z"
	},
	{
		"id": 61,
		"venue": "Lusail Stadium",
		"location": "Al Daayen",
		"status": "completed",
		"attendance": "88966",
		"stage_name": "Semi-final",
		"home_team_country": "ARG",
		"away_team_country": "CRO",
		"datetime": "2022-12-13T19:00:00Z",
		"winner": "Argentina",
		"winner_code": "ARG",
		"home_team": {
			"country": "ARG",
			"name": "Argentina",
			"goals": 3,
			"penalties": 0
		},
		"away_team": {
			"country": "CRO",
			"name": "Croatia",
			"goals": 0,
			"penalties": 0
		},
		"last_checked_at": "2022-12-19T23:48:01Z",
		"last_changed_at": "2022-12-19T23:48:02Z"
	},
	{
		"id": 60,
		"venue": "Al Bayt Stadium",
		"location": "Al Khor",
		"status": "completed",
		"attendance": "68895",
		"stage_name": "Quarter-final",
		"home_team_country": "ENG",
		"away_team_country": "FRA",
		"datetime": "2022-12-10T19:00:00Z",
		"winner": "France",
		"winner_code": "FRA",
		"home_team": {
			"country": "ENG",
			"name": "England",
			"goals": 1,
			"penalties": 0
		},
		"away_team": {
			"country": "FRA",
			"name": "France",
			"goals": 2,
			"penalties": 0
		},
		"last_checked_at": "2022-12-19T23:48:02Z",
		"last_changed_at": "2022-12-19T23:48:02Z"
	},
	{
		"id": 40,
		"venue": "Lusail Stadium",
		"location": "Al Daayen",
		"status": "completed",
		"attendance": "84985",
		"stage_name": "First stage",
		"home_team_country": "KSA",
		"away_team_country": "MEX",
		"datetime": "2022-11-30T19:00:00Z",
		"winner": "Mexico",
		"winner_code": "MEX",
		"home_team": {
			"country": "KSA",
			"name": "Saudi Arabia",
			"goals": 1,
			"penalties": 0
		},
		"away_team": {
			"country": "MEX",
			"name": "Mexico",
			"goals": 2,
			"penalties": 0
		},
		"last_checked_at": "2022-12-19T23:48:02Z",
		"last_changed_at": "2022-12-19T23:48:02Z"
	},
	{
		"id": 46,
		"venue": "Education City Stadium",
		"location": "Doha",
		"status": "completed",
		"attendance": "44097",
		"stage_name": "First stage",
		"home_team_country": "KOR",
		"away_team_country": "POR",
		"datetime": "2022-12-02T15:00:00Z",
		"winner": "Korea Republic",
		"winner_code": "KOR",
		"home_team": {
			"country": "KOR",
			"name": "Korea Republic",
			"goals": 2,
			"penalties": 0
		},
		"away_team": {
			"country": "POR",
			"name": "Portugal",
			"goals": 1,
			"penalties": 0
		},
		"last_checked_at": "2022-12-19T23:48:02Z",
		"last_changed_at": "2022-12-19T23:48:02Z"
	},
	{
		"id": 10,
		"venue": "Khalifa International Stadium",
		"location": "Ar-Rayyan",
		"status": "completed",
		"attendance": "42608",
		"stage_name": "First stage",
		"home_team_country": "GER",
		"away_team_country": "JPN",
		"datetime": "2022-11-23T13:00:00Z",
		"winner": "Japan",
		"winner_code": "JPN",
		"home_team": {
			"country": "GER",
			"name": "Germany",
			"goals": 1,
			"penalties": 0
		},
		"away_team": {
			"country": "JPN",
			"name": "Japan",
			"goals": 2,
			"penalties": 0
		},
		"last_checked_at": "2022-12-19T23:48:02Z",
		"last_changed_at": "2022-12-19T23:48:02Z"
	},
	{
		"id": 4,
		"venue": "Ahmad Bin Ali Stadium",
		"location": "Ar-Rayyan",
		"status": "completed",
		"attendance": "43418",
		"stage_name": "First stage",
		"home_team_country": "USA",
		"away_team_country": "WAL",
		"datetime": "2022-11-21T19:00:00Z",
		"winner": "Draw",
		"winner_code": "Draw",
		"home_team": {
			"country": "USA",
			"name": "United States",
			"goals": 1,
			"penalties": 0
		},
		"away_team": {
			"country": "WAL",
			"name": "Wales",
			"goals": 1,
			"penalties": 0
		},
		"last_checked_at": "2022-12-20T00:04:18Z",
		"last_changed_at": "2022-12-20T00:04:18Z"
	},
	{
		"id": 16,
		"venue": "Lusail Stadium",
		"location": "Al Daayen",
		"status": "completed",
		"attendance": "88103",
		"stage_name": "First stage",
		"home_team_country": "BRA",
		"away_team_country": "SRB",
		"datetime": "2022-11-24T19:00:00Z",
		"winner": "Brazil",
		"winner_code": "BRA",
		"home_team": {
			"country": "BRA",
			"name": "Brazil",
			"goals": 2,
			"penalties": 0
		},
		"away_team": {
			"country": "SRB",
			"name": "Serbia",
			"goals": 0,
			"penalties": 0
		},
		"last_checked_at": "2022-12-19T23:48:02Z",
		"last_changed_at": "2022-12-19T23:48:02Z"
	},
	{
		"id": 24,
		"venue": "Lusail Stadium",
		"location": "Al Daayen",
		"status": "completed",
		"attendance": "88966",
		"stage_name": "First stage",
		"home_team_country": "ARG",
		"away_team_country": "MEX",
		"datetime": "2022-11-26T19:00:00Z",
		"winner": "Argentina",
		"winner_code": "ARG",
		"home_team": {
			"country": "ARG",
			"name": "Argentina",
			"goals": 2,
			"penalties": 0
		},
		"away_team": {
			"country": "MEX",
			"name": "Mexico",
			"goals": 0,
			"penalties": 0
		},
		"last_checked_at": "2022-12-19T23:48:01Z",
		"last_changed_at": "2022-12-19T23:48:01Z"
	},
	{
		"id": 45,
		"venue": "Al Janoub Stadium",
		"location": "Al Wakrah",
		"status": "completed",
		"attendance": "43443",
		"stage_name": "First stage",
		"home_team_country": "GHA",
		"away_team_country": "URU",
		"datetime": "2022-12-02T15:00:00Z",
		"winner": "Uruguay",
		"winner_code": "URU",
		"home_team": {
			"country": "GHA",
			"name": "Ghana",
			"goals": 0,
			"penalties": 0
		},
		"away_team": {
			"country": "URU",
			"name": "Uruguay",
			"goals": 2,
			"penalties": 0
		},
		"last_checked_at": "2022-12-19T23:48:01Z",
		"last_changed_at": "2022-12-19T23:48:01Z"
	},
	{
		"id": 62,
		"venue": "Al Bayt Stadium",
		"location": "Al Khor",
		"status": "completed",
		"attendance": "68294",
		"stage_name": "Semi-final",
		"home_team_country": "FRA",
		"away_team_country": "MAR",
		"datetime": "2022-12-14T19:00:00Z",
		"winner": "France",
		"winner_code": "FRA",
		"home_team": {
			"country": "FRA",
			"name": "France",
			"goals": 2,
			"penalties": 0
		},
		"away_team": {
			"country": "MAR",
			"name": "Morocco",
			"goals": 0,
			"penalties": 0
		},
		"last_checked_at": "2022-12-20T00:01:00Z",
		"last_changed_at": "2022-12-20T00:01:00Z"
	},
	{
		"id": 26,
		"venue": "Al Thumama Stadium",
		"location": "Doha",
		"status": "completed",
		"attendance": "43738",
		"stage_name": "First stage",
		"home_team_country": "BEL",
		"away_team_country": "MAR",
		"datetime": "2022-11-27T13:00:00Z",
		"winner": "Morocco",
		"winner_code": "MAR",
		"home_team": {
			"country": "BEL",
			"name": "Belgium",
			"goals": 0,
			"penalties": 0
		},
		"away_team": {
			"country": "MAR",
			"name": "Morocco",
			"goals": 2,
			"penalties": 0
		},
		"last_checked_at": "2022-12-19T23:48:00Z",
		"last_changed_at": "2022-12-19T23:48:00Z"
	},
	{
		"id": 28,
		"venue": "Al Bayt Stadium",
		"location": "Al Khor",
		"status": "completed",
		"attendance": "68895",
		"stage_name": "First stage",
		"home_team_country": "ESP",
		"away_team_country": "GER",
		"datetime": "2022-11-27T19:00:00Z",
		"winner": "Draw",
		"winner_code": "Draw",
		"home_team": {
			"country": "ESP",
			"name": "Spain",
			"goals": 1,
			"penalties": 0
		},
		"away_team": {
			"country": "GER",
			"name": "Germany",
			"goals": 1,
			"penalties": 0
		},
		"last_checked_at": "2022-12-20T00:04:23Z",
		"last_changed_at": "2022-12-20T00:04:23Z"
	},
	{
		"id": 3,
		"venue": "Al Thumama Stadium",
		"location": "Doha",
		"status": "completed",
		"attendance": "41721",
		"stage_name": "First stage",
		"home_team_country": "SEN",
		"away_team_country": "NED",
		"datetime": "2022-11-21T16:00:00Z",
		"winner": "Netherlands",
		"winner_code": "NED",
		"home_team": {
			"country": "SEN",
			"name": "Senegal",
			"goals": 0,
			"penalties": 0
		},
		"away_team": {
			"country": "NED",
			"name": "Netherlands",
			"goals": 2,
			"penalties": 0
		},
		"last_checked_at": "2022-12-19T23:48:02Z",
		"last_changed_at": "2022-12-19T23:48:02Z"
	},
	{
		"id": 39,
		"venue": "Stadium 974",
		"location": "Doha",
		"status": "completed",
		"attendance": "44089",
		"stage_name": "First stage",
		"home_team_country": "POL",
		"away_team_country": "ARG",
		"datetime": "2022-11-30T19:00:00Z",
		"winner": "Argentina",
		"winner_code": "ARG",
		"home_team": {
			"country": "POL",
			"name": "Poland",
			"goals": 0,
			"penalties": 0
		},
		"away_team": {
			"country": "ARG",
			"name": "Argentina",
			"goals": 2,
			"penalties": 0
		},
		"last_checked_at": "2022-12-19T23:48:02Z",
		"last_changed_at": "2022-12-19T23:48:02Z"
	},
	{
		"id": 57,
		"venue": "Education City Stadium",
		"location": "Doha",
		"status": "completed",
		"attendance": "43893",
		"stage_name": "Quarter-final",
		"home_team_country": "CRO",
		"away_team_country": "BRA",
		"datetime": "2022-12-09T15:00:00Z",
		"winner": "Croatia",
		"winner_code": "CRO",
		"home_team": {
			"country": "CRO",
			"name": "Croatia",
			"goals": 1,
			"penalties": 4
		},
		"away_team": {
			"country": "BRA",
			"name": "Brazil",
			"goals": 1,
			"penalties": 2
		},
		"last_checked_at": "2022-12-19T23:48:02Z",
		"last_changed_at": "2022-12-19T23:48:02Z"
	},
	{
		"id": 22,
		"venue": "Education City Stadium",
		"location": "Doha",
		"status": "completed",
		"attendance": "44259",
		"stage_name": "First stage",
		"home_team_country": "POL",
		"away_team_country": "KSA",
		"datetime": "2022-11-26T13:00:00Z",
		"winner": "Poland",
		"winner_code": "POL",
		"home_team": {
			"country": "POL",
			"name": "Poland",
			"goals": 2,
			"penalties": 0
		},
		"away_team": {
			"country": "KSA",
			"name": "Saudi Arabia",
			"goals": 0,
			"penalties": 0
		},
		"last_checked_at": "2022-12-19T23:48:02Z",
		"last_changed_at": "2022-12-19T23:48:02Z"
	},
	{
		"id": 1,
		"venue": "Al Bayt Stadium",
		"location": "Al Khor",
		"status": "completed",
		"attendance": "67372",
		"stage_name": "First stage",
		"home_team_country": "QAT",
		"away_team_country": "ECU",
		"datetime": "2022-11-20T16:00:00Z",
		"winner": "Ecuador",
		"winner_code": "ECU",
		"home_team": {
			"country": "QAT",
			"name": "Qatar",
			"goals": 0,
			"penalties": 0
		},
		"away_team": {
			"country": "ECU",
			"name": "Ecuador",
			"goals": 2,
			"penalties": 0
		},
		"last_checked_at": "2022-12-19T23:48:02Z",
		"last_changed_at": "2022-12-19T23:48:02Z"
	},
	{
		"id": 19,
		"venue": "Khalifa International Stadium",
		"location": "Ar-Rayyan",
		"status": "completed",
		"attendance": "44833",
		"stage_name": "First stage",
		"home_team_country": "NED",
		"away_team_country": "ECU",
		"datetime": "2022-11-25T16:00:00Z",
		"winner": "Draw",
		"winner_code": "Draw",
		"home_team": {
			"country": "NED",
			"name": "Netherlands",
			"goals": 1,
			"penalties": 0
		},
		"away_team": {
			"country": "ECU",
			"name": "Ecuador",
			"goals": 1,
			"penalties": 0
		},
		"last_checked_at": "2022-12-20T00:04:06Z",
		"last_changed_at": "2022-12-20T00:04:06Z"
	},
	{
		"id": 32,
		"venue": "Lusail Stadium",
		"location": "Al Daayen",
		"status": "completed",
		"attendance": "88668",
		"stage_name": "First stage",
		"home_team_country": "POR",
		"away_team_country": "URU",
		"datetime": "2022-11-28T19:00:00Z",
		"winner": "Portugal",
		"winner_code": "POR",
		"home_team": {
			"country": "POR",
			"name": "Portugal",
			"goals": 2,
			"penalties": 0
		},
		"away_team": {
			"country": "URU",
			"name": "Uruguay",
			"goals": 0,
			"penalties": 0
		},
		"last_checked_at": "2022-12-19T23:48:00Z",
		"last_changed_at": "2022-12-19T23:48:00Z"
	},
	{
		"id": 33,
		"venue": "Al Bayt Stadium",
		"location": "Al Khor",
		"status": "completed",
		"attendance": "66784",
		"stage_name": "First stage",
		"home_team_country": "NED",
		"away_team_country": "QAT",
		"datetime": "2022-11-29T15:00:00Z",
		"winner": "Netherlands",
		"winner_code": "NED",
		"home_team": {
			"country": "NED",
			"name": "Netherlands",
			"goals": 2,
			"penalties": 0
		},
		"away_team": {
			"country": "QAT",
			"name": "Qatar",
			"goals": 0,
			"penalties": 0
		},
		"last_checked_at": "2022-12-19T23:48:01Z",
		"last_changed_at": "2022-12-19T23:48:01Z"
	},
	{
		"id": 53,
		"venue": "Al Janoub Stadium",
		"location": "Al Wakrah",
		"status": "completed",
		"attendance": "42523",
		"stage_name": "Round of 16",
		"home_team_country": "JPN",
		"away_team_country": "CRO",
		"datetime": "2022-12-05T15:00:00Z",
		"winner": "Croatia",
		"winner_code": "CRO",
		"home_team": {
			"country": "JPN",
			"name": "Japan",
			"goals": 1,
			"penalties": 1
		},
		"away_team": {
			"country": "CRO",
			"name": "Croatia",
			"goals": 1,
			"penalties": 3
		},
		"last_checked_at": "2022-12-19T23:48:01Z",
		"last_changed_at": "2022-12-19T23:48:01Z"
	},
	{
		"id": 17,
		"venue": "Ahmad Bin Ali Stadium",
		"location": "Ar-Rayyan",
		"status": "completed",
		"attendance": "40875",
		"stage_name": "First stage",
		"home_team_country": "WAL",
		"away_team_country": "IRN",
		"datetime": "2022-11-25T10:00:00Z",
		"winner": "Iran",
		"winner_code": "IRN",
		"home_team": {
			"country": "WAL",
			"name": "Wales",
			"goals": 0,
			"penalties": 0
		},
		"away_team": {
			"country": "IRN",
			"name": "Iran",
			"goals": 2,
			"penalties": 0
		},
		"last_checked_at": "2022-12-19T23:48:01Z",
		"last_changed_at": "2022-12-19T23:48:01Z"
	},
	{
		"id": 21,
		"venue": "Al Janoub Stadium",
		"location": "Al Wakrah",
		"status": "completed",
		"attendance": "41823",
		"stage_name": "First stage",
		"home_team_country": "TUN",
		"away_team_country": "AUS",
		"datetime": "2022-11-26T10:00:00Z",
		"winner": "Australia",
		"winner_code": "AUS",
		"home_team": {
			"country": "TUN",
			"name": "Tunisia",
			"goals": 0,
			"penalties": 0
		},
		"away_team": {
			"country": "AUS",
			"name": "Australia",
			"goals": 1,
			"penalties": 0
		},
		"last_checked_at": "2022-12-19T23:48:00Z",
		"last_changed_at": "2022-12-19T23:48:00Z"
	},
	{
		"id": 48,
		"venue": "Lusail Stadium",
		"location": "Al Daayen",
		"status": "completed",
		"attendance": "85986",
		"stage_name": "First stage",
		"home_team_country": "CMR",
		"away_team_country": "BRA",
		"datetime": "2022-12-02T19:00:00Z",
		"winner": "Cameroon",
		"winner_code": "CMR",
		"home_team": {
			"country": "CMR",
			"name": "Cameroon",
			"goals": 1,
			"penalties": 0
		},
		"away_team": {
			"country": "BRA",
			"name": "Brazil",
			"goals": 0,
			"penalties": 0
		},
		"last_checked_at": "2022-12-19T23:48:01Z",
		"last_changed_at": "2022-12-19T23:48:01Z"
	},
	{
		"id": 36,
		"venue": "Al Thumama Stadium",
		"location": "Doha",
		"status": "completed",
		"attendance": "42127",
		"stage_name": "First stage",
		"home_team_country": "IRN",
		"away_team_country": "USA",
		"datetime": "2022-11-29T19:00:00Z",
		"winner": "United States",
		"winner_code": "USA",
		"home_team": {
			"country": "IRN",
			"name": "Iran",
			"goals": 0,
			"penalties": 0
		},
		"away_team": {
			"country": "USA",
			"name": "United States",
			"goals": 1,
			"penalties": 0
		},
		"last_checked_at": "2022-12-19T23:48:02Z",
		"last_changed_at": "2022-12-19T23:48:02Z"
	},
	{
		"id": 37,
		"venue": "Al Janoub Stadium",
		"location": "Al Wakrah",
		"status": "completed",
		"attendance": "41232",
		"stage_name": "First stage",
		"home_team_country": "AUS",
		"away_team_country": "DEN",
		"datetime": "2022-11-30T15:00:00Z",
		"winner": "Australia",
		"winner_code": "AUS",
		"home_team": {
			"country": "AUS",
			"name": "Australia",
			"goals": 1,
			"penalties": 0
		},
		"away_team": {
			"country": "DEN",
			"name": "Denmark",
			"goals": 0,
			"penalties": 0
		},
		"last_checked_at": "2022-12-19T23:48:01Z",
		"last_changed_at": "2022-12-19T23:48:01Z"
	},
	{
		"id": 38,
		"venue": "Education City Stadium",
		"location": "Doha",
		"status": "completed",
		"attendance": "43627",
		"stage_name": "First stage",
		"home_team_country": "TUN",
		"away_team_country": "FRA",
		"datetime": "2022-11-30T15:00:00Z",
		"winner": "Tunisia",
		"winner_code": "TUN",
		"home_team": {
			"country": "TUN",
			"name": "Tunisia",
			"goals": 1,
			"penalties": 0
		},
		"away_team": {
			"country": "FRA",
			"name": "France",
			"goals": 0,
			"penalties": 0
		},
		"last_checked_at": "2022-12-19T23:48:01Z",
		"last_changed_at": "2022-12-19T23:48:01Z"
	},
	{
		"id": 31,
		"venue": "Stadium 974",
		"location": "Doha",
		"status": "completed",
		"attendance": "43649",
		"stage_name": "First stage",
		"home_team_country": "BRA",
		"away_team_country": "SUI",
		"datetime": "2022-11-28T16:00:00Z",
		"winner": "Brazil",
		"winner_code": "BRA",
		"home_team": {
			"country": "BRA",
			"name": "Brazil",
			"goals": 1,
			"penalties": 0
		},
		"away_team": {
			"country": "SUI",
			"name": "Switzerland",
			"goals": 0,
			"penalties": 0
		},
		"last_checked_at": "2022-12-19T23:48:00Z",
		"last_changed_at": "2022-12-19T23:48:01Z"
	},
	{
		"id": 12,
		"venue": "Ahmad Bin Ali Stadium",
		"location": "Ar-Rayyan",
		"status": "completed",
		"attendance": "40432",
		"stage_name": "First stage",
		"home_team_country": "BEL",
		"away_team_country": "CAN",
		"datetime": "2022-11-23T19:00:00Z",
		"winner": "Belgium",
		"winner_code": "BEL",
		"home_team": {
			"country": "BEL",
			"name": "Belgium",
			"goals": 1,
			"penalties": 0
		},
		"away_team": {
			"country": "CAN",
			"name": "Canada",
			"goals": 0,
			"penalties": 0
		},
		"last_checked_at": "2022-12-19T23:48:02Z",
		"last_changed_at": "2022-12-19T23:48:02Z"
	},
	{
		"id": 59,
		"venue": "Al Thumama Stadium",
		"location": "Doha",
		"status": "completed",
		"attendance": "44198",
		"stage_name": "Quarter-final",
		"home_team_country": "MAR",
		"away_team_country": "POR",
		"datetime": "2022-12-10T15:00:00Z",
		"winner": "Morocco",
		"winner_code": "MAR",
		"home_team": {
			"country": "MAR",
			"name": "Morocco",
			"goals": 1,
			"penalties": 0
		},
		"away_team": {
			"country": "POR",
			"name": "Portugal",
			"goals": 0,
			"penalties": 0
		},
		"last_checked_at": "2022-12-19T23:48:02Z",
		"last_changed_at": "2022-12-19T23:48:02Z"
	},
	{
		"id": 25,
		"venue": "Ahmad Bin Ali Stadium",
		"location": "Ar-Rayyan",
		"status": "completed",
		"attendance": "41479",
		"stage_name": "First stage",
		"home_team_country": "JPN",
		"away_team_country": "CRC",
		"datetime": "2022-11-27T10:00:00Z",
		"winner": "Costa Rica",
		"winner_code": "CRC",
		"home_team": {
			"country": "JPN",
			"name": "Japan",
			"goals": 0,
			"penalties": 0
		},
		"away_team": {
			"country": "CRC",
			"name": "Costa Rica",
			"goals": 1,
			"penalties": 0
		},
		"last_checked_at": "2022-12-19T23:48:02Z",
		"last_changed_at": "2022-12-19T23:48:02Z"
	},
	{
		"id": 13,
		"venue": "Al Janoub Stadium",
		"location": "Al Wakrah",
		"status": "completed",
		"attendance": "39089",
		"stage_name": "First stage",
		"home_team_country": "SUI",
		"away_team_country": "CMR",
		"datetime": "2022-11-24T10:00:00Z",
		"winner": "Switzerland",
		"winner_code": "SUI",
		"home_team": {
			"country": "SUI",
			"name": "Switzerland",
			"goals": 1,
			"penalties": 0
		},
		"away_team": {
			"country": "CMR",
			"name": "Cameroon",
			"goals": 0,
			"penalties": 0
		},
		"last_checked_at": "2022-12-19T23:48:02Z",
		"last_changed_at": "2022-12-19T23:48:02Z"
	},
	{
		"id": 6,
		"venue": "Education City Stadium",
		"location": "Doha",
		"status": "completed",
		"attendance": "42925",
		"stage_name": "First stage",
		"home_team_country": "DEN",
		"away_team_country": "TUN",
		"datetime": "2022-11-22T13:00:00Z",
		"winner": "Draw",
		"winner_code": "Draw",
		"home_team": {
			"country": "DEN",
			"name": "Denmark",
			"goals": 0,
			"penalties": 0
		},
		"away_team": {
			"country": "TUN",
			"name": "Tunisia",
			"goals": 0,
			"penalties": 0
		},
		"last_checked_at": "2022-12-20T00:04:20Z",
		"last_changed_at": "2022-12-20T00:04:20Z"
	},
	{
		"id": 55,
		"venue": "Education City Stadium",
		"location": "Doha",
		"status": "completed",
		"attendance": "44667",
		"stage_name": "Round of 16",
		"home_team_country": "MAR",
		"away_team_country": "ESP",
		"datetime": "2022-12-06T15:00:00Z",
		"winner": "Morocco",
		"winner_code": "MAR",
		"home_team": {
			"country": "MAR",
			"name": "Morocco",
			"goals": 0,
			"penalties": 3
		},
		"away_team": {
			"country": "ESP",
			"name": "Spain",
			"goals": 0,
			"penalties": 0
		},
		"last_checked_at": "2022-12-19T23:48:01Z",
		"last_changed_at": "2022-12-19T23:48:01Z"
	},
	{
		"id": 20,
		"venue": "Al Bayt Stadium",
		"location": "Al Khor",
		"status": "completed",
		"attendance": "68463",
		"stage_name": "First stage",
		"home_team_country": "ENG",
		"away_team_country": "USA",
		"datetime": "2022-11-25T19:00:00Z",
		"winner": "Draw",
		"winner_code": "Draw",
		"home_team": {
			"country": "ENG",
			"name": "England",
			"goals": 0,
			"penalties": 0
		},
		"away_team": {
			"country": "USA",
			"name": "United States",
			"goals": 0,
			"penalties": 0
		},
		"last_checked_at": "2022-12-20T00:04:09Z",
		"last_changed_at": "2022-12-20T00:04:09Z"
	},
	{
		"id": 7,
		"venue": "Stadium 974",
		"location": "Doha",
		"status": "completed",
		"attendance": "39369",
		"stage_name": "First stage",
		"home_team_country": "MEX",
		"away_team_country": "POL",
		"datetime": "2022-11-22T16:00:00Z",
		"winner": "Draw",
		"winner_code": "Draw",
		"home_team": {
			"country": "MEX",
			"name": "Mexico",
			"goals": 0,
			"penalties": 0
		},
		"away_team": {
			"country": "POL",
			"name": "Poland",
			"goals": 0,
			"penalties": 0
		},
		"last_checked_at": "2022-12-20T00:04:04Z",
		"last_changed_at": "2022-12-20T00:04:04Z"
	},
	{
		"id": 9,
		"venue": "Al Bayt Stadium",
		"location": "Al Khor",
		"status": "completed",
		"attendance": "59407",
		"stage_name": "First stage",
		"home_team_country": "MAR",
		"away_team_country": "CRO",
		"datetime": "2022-11-23T10:00:00Z",
		"winner": "Draw",
		"winner_code": "Draw",
		"home_team": {
			"country": "MAR",
			"name": "Morocco",
			"goals": 0,
			"penalties": 0
		},
		"away_team": {
			"country": "CRO",
			"name": "Croatia",
			"goals": 0,
			"penalties": 0
		},
		"last_checked_at": "2022-12-20T00:04:13Z",
		"last_changed_at": "2022-12-20T00:04:13Z"
	},
	{
		"id": 14,
		"venue": "Education City Stadium",
		"location": "Doha",
		"status": "completed",
		"attendance": "41663",
		"stage_name": "First stage",
		"home_team_country": "URU",
		"away_team_country": "KOR",
		"datetime": "2022-11-24T13:00:00Z",
		"winner": "Draw",
		"winner_code": "Draw",
		"home_team": {
			"country": "URU",
			"name": "Uruguay",
			"goals": 0,
			"penalties": 0
		},
		"away_team": {
			"country": "KOR",
			"name": "Korea Republic",
			"goals": 0,
			"penalties": 0
		},
		"last_checked_at": "2022-12-20T00:04:11Z",
		"last_changed_at": "2022-12-20T00:04:11Z"
	},
	{
		"id": 41,
		"venue": "Ahmad Bin Ali Stadium",
		"location": "Ar-Rayyan",
		"status": "completed",
		"attendance": "43984",
		"stage_name": "First stage",
		"home_team_country": "CRO",
		"away_team_country": "BEL",
		"datetime": "2022-12-01T15:00:00Z",
		"winner": "Draw",
		"winner_code": "Draw",
		"home_team": {
			"country": "CRO",
			"name": "Croatia",
			"goals": 0,
			"penalties": 0
		},
		"away_team": {
			"country": "BEL",
			"name": "Belgium",
			"goals": 0,
			"penalties": 0
		},
		"last_checked_at": "2022-12-20T00:04:02Z",
		"last_changed_at": "2022-12-20T00:04:02Z"
	}
]