[
  {
    "id": 1,
    "producto": "Mouse",
    "precio": 100
  },
  {
    "id": 2,
    "producto": "Teclado",
    "precio": 200
  },
  {
    "producto": "Monitor",
    "precio": 600,
    "id": 3
  },
  {
    "producto": "Monitor",
    "precio": 600,
    "id": 4
  }
]